basename,method,en_size,ExampleBasedAccuracy,ExampleBasedPrecision,ExampleBasedRecall,HammingLoss,SubsetAccuracy,ExampleBasedFMeasure
'scene', 'ECC', 2, 0.58236, 0.5962, 0.77901, 0.16147000000000003, 0.38515000000000005, 0.6510999999999999
'scene', 'ECC', 4, 0.6582699999999999, 0.67614, 0.73841, 0.11610000000000001, 0.56126, 0.6913
'scene', 'ECC', 8, 0.6683400000000002, 0.69019, 0.70268, 0.09569, 0.61238, 0.6871600000000001
'scene', 'ECC', 16, 0.6698099999999998, 0.6923499999999999, 0.68458, 0.08583999999999999, 0.6327200000000001, 0.68229
'scene', 'ECC', 32, 0.66735, 0.6909, 0.6752499999999999, 0.08136000000000002, 0.63606, 0.67781
'scene', 'ECC', 64, 0.6621700000000001, 0.68488, 0.6677799999999999, 0.0797, 0.63399, 0.67159
'scene', 'ECC', 128, 0.65074, 0.67408, 0.6551100000000001, 0.08046, 0.6231800000000001, 0.65995
'scene', 'ECC', 256, 0.6571800000000001, 0.67905, 0.66113, 0.07873, 0.63147, 0.6657599999999999
'scene', 'ECC-DT', 2, 0.58219, 0.60511, 0.6317999999999999, 0.13656000000000001, 0.50976, 0.6065499999999999
'scene', 'ECC-DT', 4, 0.61876, 0.6410599999999999, 0.64076, 0.10974999999999999, 0.57458, 0.63356
'scene', 'ECC-DT', 8, 0.63232, 0.6539200000000001, 0.64618, 0.09723000000000001, 0.597, 0.6441700000000001
'scene', 'ECC-DT', 16, 0.6510100000000001, 0.6726099999999999, 0.66029, 0.08600000000000001, 0.62024, 0.6613199999999999
'scene', 'ECC-DT', 32, 0.6526, 0.67614, 0.65862, 0.08267, 0.62316, 0.6624299999999999
'scene', 'ECC-DT', 64, 0.6559400000000001, 0.67866, 0.66156, 0.08032000000000002, 0.62775, 0.66535
'scene', 'ECC-DT', 128, 0.6518, 0.6747, 0.65595, 0.07983, 0.6248600000000001, 0.6607799999999999
'scene', 'ECC-DT', 256, 0.6584300000000001, 0.6803000000000001, 0.66197, 0.07901, 0.63315, 0.66686
'scene', 'EPS', 2, 0.57844, 0.59214, 0.73962, 0.16560999999999998, 0.41676, 0.6351500000000001
'scene', 'EPS', 4, 0.64341, 0.6618999999999999, 0.7150700000000001, 0.12222, 0.55339, 0.67391
'scene', 'EPS', 8, 0.64878, 0.67005, 0.66921, 0.10229000000000002, 0.6073899999999999, 0.6627799999999999
'scene', 'EPS', 16, 0.64333, 0.66659, 0.65075, 0.09327, 0.6127900000000001, 0.6535700000000001
'scene', 'EPS', 32, 0.627, 0.6487399999999999, 0.6349699999999999, 0.09431, 0.59742, 0.63692
'scene', 'EPS', 64, 0.62889, 0.6501699999999999, 0.64925, 0.10318000000000001, 0.58744, 0.6428200000000001
'scene', 'EPS', 128, 0.62496, 0.64408, 0.6519799999999999, 0.10885, 0.5791199999999999, 0.6404699999999999
'scene', 'EPS', 256, 0.6139399999999999, 0.6314599999999999, 0.64509, 0.11486999999999999, 0.5654, 0.63029
'scene', 'EPS-DT', 2, 0.61553, 0.63452, 0.66526, 0.13164, 0.5471199999999999, 0.6385799999999999
'scene', 'EPS-DT', 4, 0.60849, 0.62795, 0.6447100000000001, 0.12519999999999998, 0.55296, 0.62713
'scene', 'EPS-DT', 8, 0.6109700000000001, 0.6314900000000001, 0.6395299999999999, 0.11447, 0.56209, 0.62747
'scene', 'EPS-DT', 16, 0.62435, 0.64563, 0.64679, 0.1072, 0.58079, 0.63898
'scene', 'EPS-DT', 32, 0.62151, 0.64374, 0.6326700000000001, 0.09852999999999999, 0.5882699999999998, 0.6326499999999999
'scene', 'EPS-DT', 64, 0.62542, 0.64622, 0.6503, 0.10783000000000002, 0.5799399999999999, 0.64068
'scene', 'EPS-DT', 128, 0.6219899999999999, 0.64186, 0.6384700000000001, 0.10062, 0.58579, 0.63418
'scene', 'EPS-DT', 256, 0.6176, 0.6352, 0.6494700000000001, 0.11434, 0.56831, 0.63424
'scene', 'ESL', 2, 0.58617, 0.6001200000000001, 0.77766, 0.15879000000000001, 0.40173999999999993, 0.6517100000000001
'scene', 'ESL', 4, 0.63978, 0.6599299999999999, 0.7332, 0.11495999999999999, 0.53009, 0.6772900000000001
'scene', 'ESL', 8, 0.64789, 0.66906, 0.6930999999999999, 0.09701, 0.58246, 0.67003
'scene', 'ESL', 16, 0.62307, 0.64336, 0.6825600000000002, 0.10057, 0.54581, 0.64931
'scene', 'ESL', 32, 0.568, 0.58359, 0.69064, 0.12935, 0.44994000000000006, 0.6109
'scene', 'ESL', 64, 0.54489, 0.5566700000000001, 0.74837, 0.16755, 0.35313999999999995, 0.61304
'scene', 'ESL', 128, 0.54115, 0.55264, 0.74296, 0.16923000000000002, 0.35022000000000003, 0.60888
'scene', 'ESL', 256, 0.54094, 0.55243, 0.74255, 0.16937, 0.35022000000000003, 0.60861
'scene', 'ESL-DT', 2, 0.58118, 0.5973900000000001, 0.7257099999999999, 0.14403000000000002, 0.43628999999999996, 0.63232
'scene', 'ESL-DT', 4, 0.6128600000000001, 0.63169, 0.69682, 0.12130999999999999, 0.51434, 0.64658
'scene', 'ESL-DT', 8, 0.6168199999999999, 0.6365500000000001, 0.7032700000000001, 0.11289, 0.5172000000000001, 0.65129
'scene', 'ESL-DT', 16, 0.58877, 0.6041300000000001, 0.73406, 0.12861, 0.44072000000000006, 0.6405000000000001
'scene', 'ESL-DT', 32, 0.5811499999999998, 0.59911, 0.6910400000000001, 0.12477, 0.46821, 0.6213399999999999
'scene', 'ESL-DT', 64, 0.5547700000000001, 0.56688, 0.76643, 0.16501000000000002, 0.3598, 0.62493
'scene', 'ESL-DT', 128, 0.5436300000000001, 0.5550900000000001, 0.7462899999999999, 0.16867000000000001, 0.35269, 0.61154
'scene', 'ESL-DT', 256, 0.54181, 0.5532600000000001, 0.74588, 0.16997, 0.3502, 0.6100400000000001
