basename;method;en_size;fold;ExampleBasedAccuracy;ExampleBasedPrecision;ExampleBasedRecall;HammingLoss;SubsetAccuracy;ExampleBasedFMeasure
scene;ECC;2;Fold 0/10;0.5913;0.6044;0.8181;0.1528;0.3693;0.6686
scene;ECC;2;Fold 1/10;0.5833;0.6003;0.7988;0.1639;0.3734;0.6585
scene;ECC-DT;2;Fold 0/10;0.6010;0.6245;0.6362;0.1279;0.5436;0.6203
scene;ESL;4;Fold 0/10;0.6570;0.6826;0.7296;0.1086;0.5602;0.6895
scene;ESL;4;Fold 1/10;0.6145;0.6380;0.7220;0.1321;0.4855;0.6584
scene;ESL;4;Fold 2/10;0.6736;0.6874;0.7718;0.1044;0.5643;0.7109
scene;ESL;4;Fold 3/10;0.6317;0.6442;0.7303;0.1148;0.5270;0.6683
scene;ESL;4;Fold 4/10;0.6314;0.6508;0.7303;0.1169;0.5145;0.6715
scene;ESL;4;Fold 5/10;0.7151;0.7469;0.7801;0.0913;0.6266;0.7462
scene;ESL;4;Fold 6/10;0.6425;0.6570;0.7407;0.1113;0.5353;0.6791
scene;ESL;4;Fold 7/10;0.6306;0.6514;0.7167;0.1160;0.5292;0.6653
scene;ESL;4;Fold 8/10;0.6188;0.6403;0.7438;0.1271;0.4750;0.6672
scene;ESL;4;Fold 9/10;0.5826;0.6007;0.6667;0.1271;0.4833;0.6165
scene;ECC-DT;2;Fold 1/10;0.5470;0.5747;0.6058;0.1362;0.4606;0.5761
scene;ESL-DT;4;Fold 0/10;0.5757;0.5882;0.8437;0.1598;0.3154;0.6660
scene;ESL-DT;4;Fold 1/10;0.6293;0.6618;0.6452;0.1120;0.5809;0.6459
scene;ESL-DT;4;Fold 2/10;0.6238;0.6314;0.7407;0.1362;0.5021;0.6653
scene;ESL-DT;4;Fold 3/10;0.5588;0.5671;0.7469;0.1604;0.3693;0.6238
scene;ESL-DT;4;Fold 4/10;0.6100;0.6328;0.6328;0.1065;0.5643;0.6252
scene;ESL-DT;4;Fold 5/10;0.7151;0.7469;0.7303;0.0768;0.6680;0.7310
scene;ESL-DT;4;Fold 6/10;0.6162;0.6328;0.6390;0.1010;0.5768;0.6293
scene;ESL-DT;4;Fold 7/10;0.6313;0.6583;0.6479;0.1021;0.5875;0.6458
scene;ESL-DT;4;Fold 8/10;0.5955;0.6038;0.7500;0.1486;0.4458;0.6474
scene;ESL-DT;4;Fold 9/10;0.5729;0.5938;0.5917;0.1097;0.5333;0.5861
scene;ECC-DT;2;Fold 2/10;0.6176;0.6307;0.6784;0.1328;0.5436;0.6425
scene;ECC;8;Fold 0/10;0.6694;0.6888;0.7109;0.0968;0.6100;0.6895
scene;ECC;8;Fold 1/10;0.6743;0.7095;0.7075;0.0996;0.6058;0.6971
scene;ECC;8;Fold 2/10;0.6971;0.7178;0.7178;0.0899;0.6556;0.7109
scene;ECC;8;Fold 3/10;0.6501;0.6660;0.6743;0.1065;0.6100;0.6639
scene;ECC;8;Fold 4/10;0.6245;0.6390;0.6660;0.1093;0.5685;0.6432
scene;ECC;8;Fold 5/10;0.7324;0.7593;0.7656;0.0733;0.6722;0.7524
scene;ECC;8;Fold 6/10;0.6515;0.6639;0.6805;0.0975;0.6100;0.6653
scene;ECC;8;Fold 7/10;0.6431;0.6708;0.6833;0.0993;0.5750;0.6660
scene;ECC;8;Fold 8/10;0.6757;0.6958;0.7188;0.0889;0.6125;0.6972
scene;ECC;8;Fold 9/10;0.6653;0.6910;0.7021;0.0958;0.6042;0.6861
scene;ECC-DT;2;Fold 3/10;0.5526;0.5685;0.6162;0.1432;0.4730;0.5802
scene;ECC-DT;8;Fold 0/10;0.6591;0.6784;0.6902;0.0934;0.6100;0.6757
scene;ECC-DT;8;Fold 1/10;0.6349;0.6763;0.6432;0.1037;0.5851;0.6515
scene;ECC-DT;8;Fold 2/10;0.6266;0.6432;0.6349;0.0954;0.6017;0.6349
scene;ECC-DT;8;Fold 3/10;0.6321;0.6494;0.6411;0.1010;0.6058;0.6411
scene;ECC-DT;8;Fold 4/10;0.6100;0.6183;0.6224;0.1058;0.5892;0.6169
scene;ECC-DT;8;Fold 5/10;0.6763;0.7075;0.6826;0.0816;0.6390;0.6888
scene;ECC-DT;8;Fold 6/10;0.6307;0.6432;0.6473;0.0934;0.6017;0.6404
scene;ECC-DT;8;Fold 7/10;0.6229;0.6500;0.6313;0.0924;0.5875;0.6347
scene;ECC-DT;8;Fold 8/10;0.6618;0.6854;0.6875;0.0910;0.6125;0.6785
scene;ECC-DT;8;Fold 9/10;0.5688;0.5875;0.5813;0.1146;0.5375;0.5792
scene;ECC-DT;2;Fold 4/10;0.5595;0.5788;0.6100;0.1494;0.4896;0.5830
scene;EPS;8;Fold 0/10;0.6853;0.7068;0.7089;0.0899;0.6432;0.6999
scene;EPS;8;Fold 1/10;0.6473;0.6743;0.6535;0.1079;0.6141;0.6591
scene;EPS;8;Fold 2/10;0.6369;0.6515;0.6577;0.1086;0.6017;0.6487
scene;EPS;8;Fold 3/10;0.6141;0.6328;0.6369;0.1086;0.5726;0.6279
scene;EPS;8;Fold 4/10;0.6577;0.6784;0.6763;0.0982;0.6183;0.6708
scene;EPS;8;Fold 5/10;0.6929;0.7178;0.7095;0.0871;0.6515;0.7068
scene;EPS;8;Fold 6/10;0.6369;0.6535;0.6598;0.1024;0.5975;0.6501
scene;EPS;8;Fold 7/10;0.6493;0.6667;0.6729;0.1035;0.6083;0.6632
scene;EPS;8;Fold 8/10;0.6528;0.6833;0.6708;0.1007;0.6042;0.6694
scene;EPS;8;Fold 9/10;0.6146;0.6354;0.6458;0.1160;0.5625;0.6319
scene;ECC-DT;2;Fold 5/10;0.6411;0.6743;0.6971;0.1148;0.5519;0.6708
scene;EPS-DT;8;Fold 0/10;0.6072;0.6307;0.6238;0.1030;0.5685;0.6203
scene;EPS-DT;8;Fold 1/10;0.6134;0.6452;0.6224;0.1065;0.5726;0.6272
scene;EPS-DT;8;Fold 2/10;0.6542;0.6660;0.7116;0.1217;0.5851;0.6777
scene;EPS-DT;8;Fold 3/10;0.5705;0.5892;0.5830;0.1113;0.5394;0.5809
scene;EPS-DT;8;Fold 4/10;0.6286;0.6473;0.6369;0.0899;0.6017;0.6376
scene;EPS-DT;8;Fold 5/10;0.6355;0.6577;0.6846;0.1272;0.5643;0.6598
scene;EPS-DT;8;Fold 6/10;0.5954;0.6100;0.5996;0.1003;0.5768;0.6017
scene;EPS-DT;8;Fold 7/10;0.6264;0.6458;0.6375;0.0993;0.5958;0.6368
scene;EPS-DT;8;Fold 8/10;0.5875;0.6063;0.6521;0.1431;0.5042;0.6153
scene;EPS-DT;8;Fold 9/10;0.5910;0.6167;0.6438;0.1424;0.5125;0.6174
scene;ECC-DT;2;Fold 6/10;0.6100;0.6266;0.6680;0.1259;0.5353;0.6349
scene;ESL;8;Fold 0/10;0.6598;0.6840;0.7130;0.0968;0.5851;0.6853
scene;ESL;8;Fold 1/10;0.6494;0.6846;0.6826;0.1072;0.5851;0.6715
scene;ESL;8;Fold 2/10;0.6660;0.6826;0.7220;0.0906;0.5934;0.6902
scene;ESL;8;Fold 3/10;0.6376;0.6535;0.6826;0.1024;0.5768;0.6584
scene;ESL;8;Fold 4/10;0.6404;0.6611;0.6929;0.0947;0.5685;0.6646
scene;ESL;8;Fold 5/10;0.6770;0.7075;0.7054;0.0906;0.6183;0.6971
scene;ESL;8;Fold 6/10;0.6577;0.6722;0.7033;0.0878;0.5975;0.6777
scene;ESL;8;Fold 7/10;0.6507;0.6708;0.6979;0.0958;0.5833;0.6736
scene;ESL;8;Fold 8/10;0.6389;0.6597;0.6875;0.1000;0.5708;0.6618
scene;ESL;8;Fold 9/10;0.6014;0.6146;0.6438;0.1042;0.5458;0.6201
scene;ECC-DT;2;Fold 7/10;0.5729;0.6021;0.6042;0.1368;0.5125;0.5931
scene;ESL-DT;8;Fold 0/10;0.5989;0.6134;0.8458;0.1515;0.3610;0.6826
scene;ESL-DT;8;Fold 1/10;0.6162;0.6515;0.6245;0.1072;0.5726;0.6307
scene;ESL-DT;8;Fold 2/10;0.6763;0.6950;0.7033;0.0823;0.6307;0.6916
scene;ESL-DT;8;Fold 3/10;0.6210;0.6369;0.6369;0.1010;0.5892;0.6321
scene;ESL-DT;8;Fold 4/10;0.6328;0.6515;0.6494;0.0851;0.5975;0.6445
scene;ESL-DT;8;Fold 5/10;0.6667;0.6971;0.6763;0.0837;0.6266;0.6805
scene;ESL-DT;8;Fold 6/10;0.5723;0.5833;0.8340;0.1611;0.3361;0.6573
scene;ESL-DT;8;Fold 7/10;0.5736;0.5847;0.8167;0.1542;0.3250;0.6575
scene;ESL-DT;8;Fold 8/10;0.6125;0.6333;0.6333;0.1021;0.5708;0.6264
scene;ESL-DT;8;Fold 9/10;0.5979;0.6188;0.6125;0.1007;0.5625;0.6097
scene;ECC-DT;2;Fold 8/10;0.5771;0.6021;0.6000;0.1444;0.5292;0.5931
scene;ECC;16;Fold 0/10;0.6964;0.7158;0.7151;0.0802;0.6598;0.7089
scene;ECC;16;Fold 1/10;0.6867;0.7199;0.7012;0.0878;0.6390;0.7026
scene;ECC;16;Fold 2/10;0.6680;0.6867;0.6784;0.0892;0.6390;0.6777
scene;ECC;16;Fold 3/10;0.6466;0.6660;0.6598;0.0927;0.6141;0.6577
scene;ECC;16;Fold 4/10;0.6452;0.6577;0.6556;0.0954;0.6224;0.6528
scene;ECC;16;Fold 5/10;0.7178;0.7469;0.7344;0.0740;0.6722;0.7331
scene;ECC;16;Fold 6/10;0.6743;0.6888;0.6909;0.0802;0.6432;0.6846
scene;ECC;16;Fold 7/10;0.6701;0.6979;0.6750;0.0812;0.6375;0.6812
scene;ECC;16;Fold 8/10;0.6701;0.6938;0.6958;0.0840;0.6208;0.6868
scene;ECC;16;Fold 9/10;0.6229;0.6500;0.6396;0.0937;0.5792;0.6375
scene;ECC-DT;2;Fold 9/10;0.5431;0.5688;0.6021;0.1542;0.4583;0.5715
scene;ECC-DT;16;Fold 0/10;0.6674;0.6846;0.6840;0.0844;0.6349;0.6784
scene;ECC-DT;16;Fold 1/10;0.6805;0.7137;0.6888;0.0878;0.6390;0.6943
scene;ECC-DT;16;Fold 2/10;0.6680;0.6846;0.6722;0.0851;0.6473;0.6750
scene;ECC-DT;16;Fold 3/10;0.6259;0.6432;0.6286;0.0927;0.6058;0.6328
scene;ECC-DT;16;Fold 4/10;0.6266;0.6369;0.6328;0.0941;0.6100;0.6321
scene;ECC-DT;16;Fold 5/10;0.7075;0.7386;0.7158;0.0698;0.6680;0.7206
scene;ECC-DT;16;Fold 6/10;0.6369;0.6494;0.6473;0.0844;0.6141;0.6445
scene;ECC-DT;16;Fold 7/10;0.6417;0.6667;0.6458;0.0833;0.6125;0.6514
scene;ECC-DT;16;Fold 8/10;0.6535;0.6792;0.6688;0.0833;0.6125;0.6674
scene;ECC-DT;16;Fold 9/10;0.6021;0.6292;0.6188;0.0951;0.5583;0.6167
scene;ECC;2;Fold 2/10;0.5951;0.6027;0.7780;0.1660;0.4149;0.6571
scene;EPS;2;Fold 0/10;0.6238;0.6390;0.7151;0.1390;0.5311;0.6570
scene;EPS;16;Fold 0/10;0.6425;0.6680;0.6549;0.0947;0.6058;0.6549
scene;EPS;16;Fold 1/10;0.6549;0.6888;0.6577;0.1010;0.6183;0.6674
scene;EPS;16;Fold 2/10;0.6632;0.6784;0.6722;0.0934;0.6390;0.6715
scene;EPS;16;Fold 3/10;0.6203;0.6390;0.6328;0.0968;0.5892;0.6307
scene;EPS;16;Fold 4/10;0.6203;0.6369;0.6266;0.0982;0.5975;0.6279
scene;EPS;16;Fold 5/10;0.6660;0.6971;0.6701;0.0830;0.6307;0.6777
scene;EPS;16;Fold 6/10;0.6328;0.6452;0.6390;0.0913;0.6141;0.6390
scene;EPS;16;Fold 7/10;0.6750;0.7000;0.6792;0.0868;0.6458;0.6847
scene;EPS;16;Fold 8/10;0.6375;0.6667;0.6458;0.0937;0.6000;0.6500
scene;EPS;16;Fold 9/10;0.6208;0.6458;0.6292;0.0938;0.5875;0.6319
scene;EPS;2;Fold 1/10;0.5643;0.5858;0.7490;0.1805;0.3693;0.6333
scene;EPS-DT;16;Fold 0/10;0.6321;0.6494;0.6715;0.1252;0.5768;0.6508
scene;EPS-DT;16;Fold 1/10;0.6286;0.6598;0.6369;0.1037;0.5892;0.6418
scene;EPS-DT;16;Fold 2/10;0.6625;0.6743;0.7199;0.1217;0.5934;0.6860
scene;EPS-DT;16;Fold 3/10;0.5996;0.6203;0.6100;0.0982;0.5685;0.6100
scene;EPS-DT;16;Fold 4/10;0.6183;0.6328;0.6203;0.0934;0.6017;0.6238
scene;EPS-DT;16;Fold 5/10;0.6618;0.6909;0.6639;0.0781;0.6307;0.6722
scene;EPS-DT;16;Fold 6/10;0.5954;0.6100;0.5996;0.0954;0.5768;0.6017
scene;EPS-DT;16;Fold 7/10;0.6146;0.6313;0.6625;0.1306;0.5500;0.6361
scene;EPS-DT;16;Fold 8/10;0.6313;0.6604;0.6333;0.0896;0.6000;0.6417
scene;EPS-DT;16;Fold 9/10;0.5993;0.6271;0.6500;0.1361;0.5208;0.6257
scene;EPS;2;Fold 2/10;0.5851;0.5954;0.7739;0.1667;0.3983;0.6501
scene;ESL;16;Fold 0/10;0.6355;0.6653;0.6757;0.0927;0.5685;0.6584
scene;ESL;16;Fold 1/10;0.6349;0.6722;0.6680;0.1058;0.5643;0.6584
scene;ESL;16;Fold 2/10;0.6494;0.6680;0.6867;0.0913;0.5934;0.6680
scene;ESL;16;Fold 3/10;0.6342;0.6494;0.6722;0.0934;0.5809;0.6521
scene;ESL;16;Fold 4/10;0.6017;0.6162;0.6411;0.0975;0.5477;0.6196
scene;ESL;16;Fold 5/10;0.6819;0.7116;0.7033;0.0788;0.6307;0.6992
scene;ESL;16;Fold 6/10;0.6196;0.6321;0.6515;0.0913;0.5768;0.6342
scene;ESL;16;Fold 7/10;0.5562;0.5653;0.8396;0.1618;0.2833;0.6504
scene;ESL;16;Fold 8/10;0.6326;0.6556;0.6729;0.0924;0.5708;0.6535
scene;ESL;16;Fold 9/10;0.5847;0.5979;0.6146;0.1007;0.5417;0.5993
scene;EPS;2;Fold 3/10;0.5287;0.5380;0.7344;0.1895;0.3278;0.5988
scene;ESL-DT;16;Fold 0/10;0.6445;0.6743;0.6674;0.0878;0.5934;0.6618
scene;ESL-DT;16;Fold 1/10;0.5754;0.5913;0.7842;0.1611;0.3651;0.6490
scene;ESL-DT;16;Fold 2/10;0.6639;0.6826;0.6867;0.0844;0.6224;0.6777
scene;ESL-DT;16;Fold 3/10;0.6196;0.6369;0.6411;0.0934;0.5809;0.6328
scene;ESL-DT;16;Fold 4/10;0.5270;0.5339;0.8423;0.1736;0.2324;0.6311
scene;ESL-DT;16;Fold 5/10;0.5481;0.5619;0.8216;0.1674;0.3071;0.6364
scene;ESL-DT;16;Fold 6/10;0.6286;0.6452;0.6473;0.0878;0.5934;0.6404
scene;ESL-DT;16;Fold 7/10;0.5736;0.5826;0.8479;0.1563;0.3042;0.6657
scene;ESL-DT;16;Fold 8/10;0.5299;0.5368;0.8125;0.1729;0.2625;0.6226
scene;ESL-DT;16;Fold 9/10;0.5771;0.5958;0.5896;0.1014;0.5458;0.5875
scene;EPS;2;Fold 4/10;0.5761;0.5858;0.7635;0.1701;0.3859;0.6418
scene;ECC;32;Fold 0/10;0.6694;0.6929;0.6819;0.0830;0.6349;0.6812
scene;ECC;32;Fold 1/10;0.6867;0.7220;0.6909;0.0795;0.6473;0.6999
scene;ECC;32;Fold 2/10;0.6888;0.7095;0.6929;0.0788;0.6639;0.6971
scene;ECC;32;Fold 3/10;0.6349;0.6535;0.6411;0.0906;0.6100;0.6432
scene;ECC;32;Fold 4/10;0.6452;0.6598;0.6577;0.0871;0.6183;0.6542
scene;ECC;32;Fold 5/10;0.7033;0.7303;0.7033;0.0685;0.6763;0.7123
scene;ECC;32;Fold 6/10;0.6535;0.6660;0.6639;0.0802;0.6307;0.6611
scene;ECC;32;Fold 7/10;0.6688;0.7021;0.6750;0.0771;0.6292;0.6819
scene;ECC;32;Fold 8/10;0.6875;0.7146;0.6979;0.0806;0.6500;0.7000
scene;ECC;32;Fold 9/10;0.6354;0.6583;0.6479;0.0882;0.6000;0.6472
scene;EPS;2;Fold 5/10;0.6176;0.6362;0.7905;0.1521;0.4315;0.6817
scene;ECC-DT;32;Fold 0/10;0.6591;0.6826;0.6694;0.0837;0.6266;0.6701
scene;ECC-DT;32;Fold 1/10;0.6867;0.7220;0.6909;0.0788;0.6473;0.6999
scene;ECC-DT;32;Fold 2/10;0.6722;0.6929;0.6763;0.0802;0.6473;0.6805
scene;ECC-DT;32;Fold 3/10;0.6245;0.6432;0.6286;0.0920;0.6017;0.6321
scene;ECC-DT;32;Fold 4/10;0.6162;0.6286;0.6224;0.0885;0.5975;0.6224
scene;ECC-DT;32;Fold 5/10;0.6950;0.7261;0.6950;0.0698;0.6639;0.7054
scene;ECC-DT;32;Fold 6/10;0.6494;0.6639;0.6535;0.0788;0.6307;0.6556
scene;ECC-DT;32;Fold 7/10;0.6583;0.6896;0.6646;0.0785;0.6208;0.6708
scene;ECC-DT;32;Fold 8/10;0.6458;0.6729;0.6563;0.0868;0.6083;0.6583
scene;ECC-DT;32;Fold 9/10;0.6188;0.6396;0.6292;0.0896;0.5875;0.6292
scene;EPS;2;Fold 6/10;0.5360;0.5436;0.7552;0.1867;0.3237;0.6097
scene;EPS;32;Fold 0/10;0.6445;0.6680;0.6487;0.0878;0.6183;0.6535
scene;EPS;32;Fold 1/10;0.6079;0.6369;0.6100;0.1079;0.5768;0.6183
scene;EPS;32;Fold 2/10;0.6432;0.6577;0.6494;0.0858;0.6224;0.6501
scene;EPS;32;Fold 3/10;0.5871;0.6058;0.5913;0.1003;0.5643;0.5947
scene;EPS;32;Fold 4/10;0.6017;0.6183;0.6058;0.0906;0.5809;0.6086
scene;EPS;32;Fold 5/10;0.6639;0.6929;0.6680;0.0816;0.6307;0.6750
scene;EPS;32;Fold 6/10;0.6224;0.6328;0.6245;0.0864;0.6100;0.6266
scene;EPS;32;Fold 7/10;0.6333;0.6521;0.6354;0.0861;0.6125;0.6403
scene;EPS;32;Fold 8/10;0.6542;0.6833;0.6583;0.0854;0.6208;0.6653
scene;EPS;32;Fold 9/10;0.6118;0.6396;0.6583;0.1312;0.5375;0.6368
scene;EPS;2;Fold 7/10;0.6101;0.6188;0.7104;0.1458;0.5125;0.6444
scene;EPS-DT;32;Fold 0/10;0.6466;0.6701;0.6487;0.0871;0.6224;0.6549
scene;EPS-DT;32;Fold 1/10;0.6058;0.6349;0.6058;0.1065;0.5768;0.6155
scene;EPS-DT;32;Fold 2/10;0.6390;0.6556;0.6432;0.0864;0.6183;0.6459
scene;EPS-DT;32;Fold 3/10;0.5830;0.6037;0.5851;0.0989;0.5602;0.5906
scene;EPS-DT;32;Fold 4/10;0.6466;0.6639;0.6950;0.1210;0.5809;0.6687
scene;EPS-DT;32;Fold 5/10;0.6535;0.6826;0.6556;0.0795;0.6224;0.6639
scene;EPS-DT;32;Fold 6/10;0.5996;0.6120;0.6058;0.0920;0.5809;0.6058
scene;EPS-DT;32;Fold 7/10;0.6271;0.6479;0.6292;0.0875;0.6042;0.6347
scene;EPS-DT;32;Fold 8/10;0.6104;0.6354;0.6125;0.0931;0.5833;0.6194
scene;EPS-DT;32;Fold 9/10;0.6035;0.6313;0.6458;0.1333;0.5333;0.6271
scene;EPS;2;Fold 8/10;0.5625;0.5771;0.7104;0.1681;0.4208;0.6129
scene;ESL;32;Fold 0/10;0.6086;0.6349;0.6570;0.0996;0.5353;0.6335
scene;ESL;32;Fold 1/10;0.5920;0.6266;0.6266;0.1155;0.5228;0.6155
scene;ESL;32;Fold 2/10;0.4824;0.4862;0.8299;0.2075;0.2075;0.5870
scene;ESL;32;Fold 3/10;0.6252;0.6369;0.6577;0.0982;0.5809;0.6404
scene;ESL;32;Fold 4/10;0.5809;0.5954;0.6162;0.1003;0.5311;0.5975
scene;ESL;32;Fold 5/10;0.5211;0.5328;0.8278;0.1833;0.2656;0.6170
scene;ESL;32;Fold 6/10;0.5844;0.5968;0.6224;0.0968;0.5353;0.6010
scene;ESL;32;Fold 7/10;0.5222;0.5312;0.8438;0.1840;0.2500;0.6226
scene;ESL;32;Fold 8/10;0.6076;0.6243;0.6458;0.1007;0.5542;0.6257
scene;ESL;32;Fold 9/10;0.5556;0.5708;0.5792;0.1076;0.5167;0.5688
scene;EPS;2;Fold 9/10;0.5802;0.6017;0.6938;0.1576;0.4667;0.6218
scene;ESL-DT;32;Fold 0/10;0.6259;0.6535;0.6570;0.0961;0.5685;0.6452
scene;ESL-DT;32;Fold 1/10;0.6100;0.6452;0.6286;0.1107;0.5560;0.6279
scene;ESL-DT;32;Fold 2/10;0.4907;0.4945;0.8257;0.2033;0.2116;0.5939
scene;ESL-DT;32;Fold 3/10;0.6307;0.6473;0.6556;0.0927;0.5892;0.6445
scene;ESL-DT;32;Fold 4/10;0.5954;0.6100;0.6245;0.0982;0.5519;0.6100
scene;ESL-DT;32;Fold 5/10;0.5481;0.5619;0.8299;0.1687;0.2905;0.6405
scene;ESL-DT;32;Fold 6/10;0.5954;0.6100;0.6203;0.0954;0.5560;0.6086
scene;ESL-DT;32;Fold 7/10;0.5417;0.5507;0.8563;0.1771;0.2667;0.6414
scene;ESL-DT;32;Fold 8/10;0.6201;0.6451;0.6417;0.0972;0.5750;0.6354
scene;ESL-DT;32;Fold 9/10;0.5535;0.5729;0.5708;0.1083;0.5167;0.5660
scene;ECC;2;Fold 3/10;0.5553;0.5678;0.7967;0.1791;0.3278;0.6367
scene;EPS-DT;2;Fold 0/10;0.6314;0.6508;0.6777;0.1272;0.5685;0.6528
scene;ECC;64;Fold 0/10;0.6881;0.7116;0.6985;0.0768;0.6556;0.6992
scene;ECC;64;Fold 1/10;0.6556;0.6888;0.6639;0.0816;0.6141;0.6694
scene;ECC;64;Fold 2/10;0.6929;0.7116;0.6992;0.0761;0.6680;0.7012
scene;ECC;64;Fold 3/10;0.6452;0.6618;0.6515;0.0864;0.6224;0.6528
scene;ECC;64;Fold 4/10;0.6183;0.6307;0.6224;0.0899;0.6017;0.6238
scene;ECC;64;Fold 5/10;0.6971;0.7261;0.6971;0.0678;0.6680;0.7068
scene;ECC;64;Fold 6/10;0.6328;0.6473;0.6411;0.0788;0.6100;0.6404
scene;ECC;64;Fold 7/10;0.6958;0.7250;0.6958;0.0694;0.6667;0.7056
scene;ECC;64;Fold 8/10;0.6771;0.7042;0.6854;0.0771;0.6417;0.6889
scene;ECC;64;Fold 9/10;0.6188;0.6417;0.6229;0.0931;0.5917;0.6278
scene;EPS-DT;2;Fold 1/10;0.5761;0.6017;0.6203;0.1369;0.5062;0.6003
scene;ECC-DT;64;Fold 0/10;0.6798;0.7033;0.6902;0.0781;0.6473;0.6909
scene;ECC-DT;64;Fold 1/10;0.6556;0.6888;0.6639;0.0816;0.6141;0.6694
scene;ECC-DT;64;Fold 2/10;0.6805;0.6992;0.6867;0.0775;0.6556;0.6888
scene;ECC-DT;64;Fold 3/10;0.6245;0.6411;0.6307;0.0892;0.6017;0.6321
scene;ECC-DT;64;Fold 4/10;0.6141;0.6266;0.6183;0.0892;0.5975;0.6196
scene;ECC-DT;64;Fold 5/10;0.6971;0.7261;0.6971;0.0678;0.6680;0.7068
scene;ECC-DT;64;Fold 6/10;0.6328;0.6473;0.6411;0.0781;0.6100;0.6404
scene;ECC-DT;64;Fold 7/10;0.6875;0.7167;0.6875;0.0701;0.6583;0.6972
scene;ECC-DT;64;Fold 8/10;0.6729;0.7000;0.6813;0.0778;0.6375;0.6847
scene;ECC-DT;64;Fold 9/10;0.6146;0.6375;0.6188;0.0938;0.5875;0.6236
scene;EPS-DT;2;Fold 2/10;0.6653;0.6743;0.7158;0.1183;0.6058;0.6853
scene;EPS;64;Fold 0/10;0.6362;0.6515;0.6819;0.1245;0.5768;0.6563
scene;EPS;64;Fold 1/10;0.6328;0.6680;0.6369;0.0947;0.5934;0.6459
scene;EPS;64;Fold 2/10;0.6687;0.6805;0.7199;0.1183;0.6058;0.6902
scene;EPS;64;Fold 3/10;0.5975;0.6162;0.5996;0.0906;0.5768;0.6044
scene;EPS;64;Fold 4/10;0.6452;0.6618;0.6929;0.1217;0.5809;0.6667
scene;EPS;64;Fold 5/10;0.6618;0.6909;0.6639;0.0768;0.6307;0.6722
scene;EPS;64;Fold 6/10;0.6286;0.6390;0.6286;0.0871;0.6183;0.6321
scene;EPS;64;Fold 7/10;0.6021;0.6250;0.6063;0.0924;0.5750;0.6111
scene;EPS;64;Fold 8/10;0.6042;0.6292;0.6083;0.0938;0.5750;0.6139
scene;EPS;64;Fold 9/10;0.6118;0.6396;0.6542;0.1319;0.5417;0.6354
scene;EPS-DT;2;Fold 3/10;0.5864;0.5975;0.6307;0.1445;0.5311;0.6051
scene;EPS-DT;64;Fold 0/10;0.6362;0.6515;0.6777;0.1266;0.5809;0.6549
scene;EPS-DT;64;Fold 1/10;0.6120;0.6473;0.6120;0.0968;0.5768;0.6238
scene;EPS-DT;64;Fold 2/10;0.6729;0.6846;0.7241;0.1162;0.6100;0.6943
scene;EPS-DT;64;Fold 3/10;0.5871;0.6079;0.5892;0.0906;0.5643;0.5947
scene;EPS-DT;64;Fold 4/10;0.6452;0.6618;0.6929;0.1217;0.5809;0.6667
scene;EPS-DT;64;Fold 5/10;0.6535;0.6826;0.6556;0.0781;0.6224;0.6639
scene;EPS-DT;64;Fold 6/10;0.6369;0.6473;0.6369;0.0844;0.6266;0.6404
scene;EPS-DT;64;Fold 7/10;0.6104;0.6333;0.6104;0.0903;0.5875;0.6181
scene;EPS-DT;64;Fold 8/10;0.5875;0.6042;0.6500;0.1424;0.5083;0.6139
scene;EPS-DT;64;Fold 9/10;0.6125;0.6417;0.6542;0.1312;0.5417;0.6361
scene;EPS-DT;2;Fold 4/10;0.6480;0.6639;0.6992;0.1245;0.5809;0.6708
scene;ESL;64;Fold 0/10;0.5595;0.5671;0.7794;0.1694;0.3444;0.6340
scene;ESL;64;Fold 1/10;0.5477;0.5629;0.6929;0.1660;0.3942;0.6008
scene;ESL;64;Fold 2/10;0.5615;0.5671;0.8133;0.1826;0.3651;0.6371
scene;ESL;64;Fold 3/10;0.5135;0.5214;0.7801;0.2012;0.2822;0.5979
scene;ESL;64;Fold 4/10;0.5124;0.5263;0.6100;0.1487;0.4066;0.5491
scene;ESL;64;Fold 5/10;0.5626;0.5788;0.8216;0.1521;0.2946;0.6535
scene;ESL;64;Fold 6/10;0.5733;0.5844;0.7759;0.1521;0.3693;0.6430
scene;ESL;64;Fold 7/10;0.5111;0.5229;0.7771;0.1833;0.2417;0.6033
scene;ESL;64;Fold 8/10;0.5729;0.5917;0.6313;0.1222;0.4958;0.5986
scene;ESL;64;Fold 9/10;0.5344;0.5441;0.8021;0.1979;0.3375;0.6131
scene;EPS-DT;2;Fold 5/10;0.6279;0.6535;0.6826;0.1245;0.5477;0.6549
scene;ESL-DT;64;Fold 0/10;0.5664;0.5740;0.8333;0.1674;0.3154;0.6548
scene;ESL-DT;64;Fold 1/10;0.5456;0.5609;0.6929;0.1667;0.3900;0.5994
scene;ESL-DT;64;Fold 2/10;0.5650;0.5705;0.8174;0.1805;0.3651;0.6412
scene;ESL-DT;64;Fold 3/10;0.5225;0.5304;0.7884;0.1992;0.2905;0.6069
scene;ESL-DT;64;Fold 4/10;0.5636;0.5795;0.6245;0.1279;0.4896;0.5892
scene;ESL-DT;64;Fold 5/10;0.5619;0.5781;0.8216;0.1535;0.2946;0.6528
scene;ESL-DT;64;Fold 6/10;0.5609;0.5705;0.8465;0.1667;0.3195;0.6506
scene;ESL-DT;64;Fold 7/10;0.5167;0.5285;0.7813;0.1806;0.2500;0.6082
scene;ESL-DT;64;Fold 8/10;0.6104;0.6292;0.6563;0.1111;0.5458;0.6319
scene;ESL-DT;64;Fold 9/10;0.5347;0.5472;0.8021;0.1965;0.3375;0.6143
scene;EPS-DT;2;Fold 6/10;0.6494;0.6639;0.7075;0.1210;0.5768;0.6736
scene;ECC;128;Fold 0/10;0.6528;0.6826;0.6591;0.0781;0.6183;0.6646
scene;ECC;128;Fold 1/10;0.6515;0.6867;0.6577;0.0851;0.6100;0.6653
scene;ECC;128;Fold 2/10;0.6867;0.7033;0.6929;0.0768;0.6639;0.6943
scene;ECC;128;Fold 3/10;0.6058;0.6224;0.6141;0.0885;0.5809;0.6141
scene;ECC;128;Fold 4/10;0.6037;0.6162;0.6058;0.0899;0.5892;0.6086
scene;ECC;128;Fold 5/10;0.7158;0.7469;0.7158;0.0636;0.6846;0.7261
scene;ECC;128;Fold 6/10;0.6369;0.6515;0.6411;0.0768;0.6183;0.6432
scene;ECC;128;Fold 7/10;0.6729;0.7000;0.6729;0.0743;0.6458;0.6819
scene;ECC;128;Fold 8/10;0.6688;0.6958;0.6771;0.0778;0.6333;0.6806
scene;ECC;128;Fold 9/10;0.6125;0.6354;0.6146;0.0937;0.5875;0.6208
scene;EPS-DT;2;Fold 7/10;0.5979;0.6167;0.6521;0.1375;0.5250;0.6222
scene;ECC-DT;128;Fold 0/10;0.6487;0.6763;0.6528;0.0788;0.6183;0.6591
scene;ECC-DT;128;Fold 1/10;0.6515;0.6867;0.6577;0.0851;0.6100;0.6653
scene;ECC-DT;128;Fold 2/10;0.6867;0.7033;0.6929;0.0754;0.6639;0.6943
scene;ECC-DT;128;Fold 3/10;0.6017;0.6183;0.6100;0.0885;0.5768;0.6100
scene;ECC-DT;128;Fold 4/10;0.6162;0.6286;0.6183;0.0864;0.6017;0.6210
scene;ECC-DT;128;Fold 5/10;0.7158;0.7469;0.7158;0.0629;0.6846;0.7261
scene;ECC-DT;128;Fold 6/10;0.6349;0.6473;0.6390;0.0775;0.6183;0.6404
scene;ECC-DT;128;Fold 7/10;0.6771;0.7042;0.6771;0.0736;0.6500;0.6861
scene;ECC-DT;128;Fold 8/10;0.6729;0.7000;0.6813;0.0764;0.6375;0.6847
scene;ECC-DT;128;Fold 9/10;0.6125;0.6354;0.6146;0.0937;0.5875;0.6208
scene;EPS-DT;2;Fold 8/10;0.5854;0.6083;0.6354;0.1417;0.5125;0.6097
scene;EPS;128;Fold 0/10;0.6425;0.6639;0.6466;0.0851;0.6183;0.6508
scene;EPS;128;Fold 1/10;0.6196;0.6515;0.6224;0.0968;0.5851;0.6314
scene;EPS;128;Fold 2/10;0.6646;0.6763;0.7116;0.1189;0.6058;0.6846
scene;EPS;128;Fold 3/10;0.5954;0.6162;0.5975;0.0878;0.5726;0.6030
scene;EPS;128;Fold 4/10;0.6349;0.6494;0.6784;0.1252;0.5768;0.6542
scene;EPS;128;Fold 5/10;0.6272;0.6452;0.6888;0.1314;0.5477;0.6542
scene;EPS;128;Fold 6/10;0.6328;0.6411;0.6349;0.0864;0.6224;0.6362
scene;EPS;128;Fold 7/10;0.6104;0.6222;0.6646;0.1340;0.5458;0.6326
scene;EPS;128;Fold 8/10;0.6083;0.6333;0.6125;0.0910;0.5792;0.6181
scene;EPS;128;Fold 9/10;0.6139;0.6417;0.6625;0.1319;0.5375;0.6396
scene;EPS-DT;2;Fold 9/10;0.5875;0.6146;0.6313;0.1403;0.5167;0.6111
scene;EPS-DT;128;Fold 0/10;0.6570;0.6784;0.6591;0.0830;0.6349;0.6646
scene;EPS-DT;128;Fold 1/10;0.6141;0.6494;0.6162;0.0982;0.5768;0.6266
scene;EPS-DT;128;Fold 2/10;0.6646;0.6763;0.7158;0.1183;0.6017;0.6860
scene;EPS-DT;128;Fold 3/10;0.6017;0.6245;0.6037;0.0878;0.5768;0.6100
scene;EPS-DT;128;Fold 4/10;0.6203;0.6369;0.6224;0.0830;0.6017;0.6266
scene;EPS-DT;128;Fold 5/10;0.6252;0.6432;0.6805;0.1321;0.5519;0.6501
scene;EPS-DT;128;Fold 6/10;0.6349;0.6432;0.6349;0.0871;0.6266;0.6376
scene;EPS-DT;128;Fold 7/10;0.6229;0.6396;0.6708;0.1264;0.5583;0.6444
scene;EPS-DT;128;Fold 8/10;0.6188;0.6458;0.6188;0.0889;0.5917;0.6278
scene;EPS-DT;128;Fold 9/10;0.5604;0.5813;0.5625;0.1014;0.5375;0.5681
scene;ECC;2;Fold 4/10;0.5536;0.5654;0.7614;0.1784;0.3444;0.6267
scene;ESL;2;Fold 0/10;0.5923;0.6113;0.7400;0.1508;0.4398;0.6462
scene;ESL;128;Fold 0/10;0.5574;0.5650;0.7586;0.1687;0.3527;0.6271
scene;ESL;128;Fold 1/10;0.5477;0.5629;0.6929;0.1660;0.3942;0.6008
scene;ESL;128;Fold 2/10;0.5615;0.5671;0.8133;0.1826;0.3651;0.6371
scene;ESL;128;Fold 3/10;0.5135;0.5214;0.7801;0.2012;0.2822;0.5979
scene;ESL;128;Fold 4/10;0.5104;0.5242;0.6058;0.1494;0.4066;0.5463
scene;ESL;128;Fold 5/10;0.5626;0.5788;0.8216;0.1521;0.2946;0.6535
scene;ESL;128;Fold 6/10;0.5768;0.5858;0.7739;0.1501;0.3776;0.6444
scene;ESL;128;Fold 7/10;0.5111;0.5229;0.7771;0.1833;0.2417;0.6033
scene;ESL;128;Fold 8/10;0.5361;0.5521;0.6063;0.1417;0.4500;0.5653
scene;ESL;128;Fold 9/10;0.5344;0.5462;0.8000;0.1972;0.3375;0.6131
scene;ESL;2;Fold 1/10;0.5568;0.5731;0.7676;0.1743;0.3568;0.6296
scene;ESL-DT;128;Fold 0/10;0.5602;0.5678;0.7628;0.1674;0.3568;0.6299
scene;ESL-DT;128;Fold 1/10;0.5425;0.5581;0.6909;0.1694;0.3900;0.5964
scene;ESL-DT;128;Fold 2/10;0.5650;0.5705;0.8174;0.1805;0.3651;0.6412
scene;ESL-DT;128;Fold 3/10;0.5176;0.5256;0.7842;0.2006;0.2863;0.6021
scene;ESL-DT;128;Fold 4/10;0.5173;0.5311;0.6100;0.1459;0.4149;0.5526
scene;ESL-DT;128;Fold 5/10;0.5626;0.5788;0.8216;0.1528;0.2946;0.6535
scene;ESL-DT;128;Fold 6/10;0.5781;0.5871;0.7822;0.1521;0.3776;0.6472
scene;ESL-DT;128;Fold 7/10;0.5132;0.5250;0.7771;0.1826;0.2458;0.6047
scene;ESL-DT;128;Fold 8/10;0.5451;0.5604;0.6167;0.1389;0.4583;0.5743
scene;ESL-DT;128;Fold 9/10;0.5347;0.5465;0.8000;0.1965;0.3375;0.6135
scene;ESL;2;Fold 2/10;0.6231;0.6355;0.8216;0.1494;0.4315;0.6906
scene;ECC;256;Fold 0/10;0.6840;0.7075;0.6902;0.0747;0.6556;0.6936
scene;ECC;256;Fold 1/10;0.6452;0.6805;0.6494;0.0878;0.6058;0.6584
scene;ECC;256;Fold 2/10;0.6888;0.7054;0.6929;0.0761;0.6680;0.6957
scene;ECC;256;Fold 3/10;0.6224;0.6390;0.6307;0.0837;0.5975;0.6307
scene;ECC;256;Fold 4/10;0.6245;0.6369;0.6266;0.0837;0.6100;0.6293
scene;ECC;256;Fold 5/10;0.7075;0.7386;0.7075;0.0629;0.6763;0.7178
scene;ECC;256;Fold 6/10;0.6369;0.6452;0.6390;0.0788;0.6266;0.6404
scene;ECC;256;Fold 7/10;0.6833;0.7083;0.6833;0.0715;0.6583;0.6917
scene;ECC;256;Fold 8/10;0.6688;0.6958;0.6771;0.0750;0.6333;0.6806
scene;ECC;256;Fold 9/10;0.6104;0.6333;0.6146;0.0931;0.5833;0.6194
scene;ESL;2;Fold 3/10;0.5771;0.5896;0.8029;0.1611;0.3610;0.6533
scene;ECC-DT;256;Fold 0/10;0.6881;0.7116;0.6943;0.0754;0.6598;0.6978
scene;ECC-DT;256;Fold 1/10;0.6390;0.6763;0.6432;0.0892;0.5975;0.6528
scene;ECC-DT;256;Fold 2/10;0.6888;0.7054;0.6929;0.0768;0.6680;0.6957
scene;ECC-DT;256;Fold 3/10;0.6245;0.6390;0.6286;0.0830;0.6058;0.6307
scene;ECC-DT;256;Fold 4/10;0.6245;0.6369;0.6266;0.0837;0.6100;0.6293
scene;ECC-DT;256;Fold 5/10;0.7116;0.7427;0.7116;0.0636;0.6805;0.7220
scene;ECC-DT;256;Fold 6/10;0.6411;0.6494;0.6432;0.0781;0.6307;0.6445
scene;ECC-DT;256;Fold 7/10;0.6792;0.7042;0.6792;0.0729;0.6542;0.6875
scene;ECC-DT;256;Fold 8/10;0.6729;0.7000;0.6813;0.0750;0.6375;0.6847
scene;ECC-DT;256;Fold 9/10;0.6146;0.6375;0.6188;0.0924;0.5875;0.6236
scene;ESL;2;Fold 4/10;0.5664;0.5809;0.7718;0.1674;0.3734;0.6355
scene;EPS;256;Fold 0/10;0.6321;0.6473;0.6736;0.1272;0.5768;0.6508
scene;EPS;256;Fold 1/10;0.6100;0.6411;0.6120;0.0975;0.5768;0.6210
scene;EPS;256;Fold 2/10;0.6604;0.6722;0.7075;0.1203;0.6017;0.6805
scene;EPS;256;Fold 3/10;0.5934;0.6162;0.5954;0.0871;0.5685;0.6017
scene;EPS;256;Fold 4/10;0.6321;0.6494;0.6784;0.1245;0.5685;0.6535
scene;EPS;256;Fold 5/10;0.6314;0.6494;0.6846;0.1300;0.5602;0.6556
scene;EPS;256;Fold 6/10;0.6307;0.6390;0.6307;0.0844;0.6224;0.6335
scene;EPS;256;Fold 7/10;0.6097;0.6229;0.6604;0.1326;0.5458;0.6313
scene;EPS;256;Fold 8/10;0.5813;0.5979;0.6458;0.1437;0.5000;0.6083
scene;EPS;256;Fold 9/10;0.5583;0.5792;0.5625;0.1014;0.5333;0.5667
scene;ESL;2;Fold 5/10;0.6404;0.6604;0.8195;0.1349;0.4606;0.7044
scene;EPS-DT;256;Fold 0/10;0.6362;0.6515;0.6819;0.1266;0.5768;0.6563
scene;EPS-DT;256;Fold 1/10;0.6058;0.6369;0.6079;0.0982;0.5726;0.6169
scene;EPS-DT;256;Fold 2/10;0.6604;0.6722;0.7116;0.1196;0.5975;0.6819
scene;EPS-DT;256;Fold 3/10;0.5975;0.6203;0.5996;0.0878;0.5726;0.6058
scene;EPS-DT;256;Fold 4/10;0.6438;0.6598;0.6950;0.1224;0.5768;0.6667
scene;EPS-DT;256;Fold 5/10;0.6252;0.6473;0.6763;0.1307;0.5519;0.6501
scene;EPS-DT;256;Fold 6/10;0.6349;0.6432;0.6349;0.0851;0.6266;0.6376
scene;EPS-DT;256;Fold 7/10;0.6201;0.6333;0.6688;0.1299;0.5583;0.6410
scene;EPS-DT;256;Fold 8/10;0.5958;0.6104;0.6604;0.1396;0.5167;0.6222
scene;EPS-DT;256;Fold 9/10;0.5563;0.5771;0.5583;0.1035;0.5333;0.5639
scene;ESL;2;Fold 6/10;0.5598;0.5702;0.7573;0.1743;0.3817;0.6248
scene;ESL;256;Fold 0/10;0.5574;0.5650;0.7586;0.1687;0.3527;0.6271
scene;ESL;256;Fold 1/10;0.5477;0.5629;0.6929;0.1660;0.3942;0.6008
scene;ESL;256;Fold 2/10;0.5615;0.5671;0.8133;0.1826;0.3651;0.6371
scene;ESL;256;Fold 3/10;0.5135;0.5214;0.7801;0.2012;0.2822;0.5979
scene;ESL;256;Fold 4/10;0.5083;0.5221;0.6017;0.1508;0.4066;0.5436
scene;ESL;256;Fold 5/10;0.5626;0.5788;0.8216;0.1521;0.2946;0.6535
scene;ESL;256;Fold 6/10;0.5768;0.5858;0.7739;0.1501;0.3776;0.6444
scene;ESL;256;Fold 7/10;0.5111;0.5229;0.7771;0.1833;0.2417;0.6033
scene;ESL;256;Fold 8/10;0.5361;0.5521;0.6063;0.1417;0.4500;0.5653
scene;ESL;256;Fold 9/10;0.5344;0.5462;0.8000;0.1972;0.3375;0.6131
scene;ESL;2;Fold 7/10;0.5823;0.5951;0.7646;0.1535;0.4042;0.6454
scene;ESL-DT;256;Fold 0/10;0.5602;0.5678;0.7628;0.1680;0.3568;0.6299
scene;ESL-DT;256;Fold 1/10;0.5418;0.5574;0.6909;0.1708;0.3900;0.5956
scene;ESL-DT;256;Fold 2/10;0.5671;0.5726;0.8174;0.1805;0.3693;0.6426
scene;ESL-DT;256;Fold 3/10;0.5142;0.5221;0.7801;0.2019;0.2822;0.5986
scene;ESL-DT;256;Fold 4/10;0.5173;0.5311;0.6100;0.1466;0.4149;0.5526
scene;ESL-DT;256;Fold 5/10;0.5619;0.5781;0.8216;0.1528;0.2946;0.6528
scene;ESL-DT;256;Fold 6/10;0.5761;0.5851;0.7822;0.1528;0.3734;0.6458
scene;ESL-DT;256;Fold 7/10;0.5083;0.5201;0.7771;0.1847;0.2375;0.6013
scene;ESL-DT;256;Fold 8/10;0.5368;0.5521;0.6167;0.1444;0.4458;0.5681
scene;ESL-DT;256;Fold 9/10;0.5344;0.5462;0.8000;0.1972;0.3375;0.6131
scene;ESL;2;Fold 8/10;0.5934;0.6087;0.7750;0.1611;0.4167;0.6556
scene;ESL;2;Fold 9/10;0.5701;0.5764;0.7563;0.1611;0.3917;0.6317
scene;ECC;2;Fold 5/10;0.6300;0.6425;0.8216;0.1411;0.4274;0.6982
scene;ESL-DT;2;Fold 0/10;0.5052;0.5121;0.8811;0.2006;0.1950;0.6207
scene;ESL-DT;2;Fold 1/10;0.4938;0.5073;0.8340;0.2061;0.2033;0.6022
scene;ESL-DT;2;Fold 2/10;0.6867;0.7095;0.7116;0.0982;0.6390;0.7026
scene;ESL-DT;2;Fold 3/10;0.6203;0.6369;0.6473;0.1169;0.5768;0.6349
scene;ESL-DT;2;Fold 4/10;0.6044;0.6259;0.6535;0.1189;0.5353;0.6279
scene;ESL-DT;2;Fold 5/10;0.5332;0.5477;0.8237;0.1660;0.2365;0.6339
scene;ESL-DT;2;Fold 6/10;0.5685;0.5851;0.6183;0.1349;0.5021;0.5906
scene;ESL-DT;2;Fold 7/10;0.6115;0.6188;0.8313;0.1403;0.3958;0.6854
scene;ESL-DT;2;Fold 8/10;0.6042;0.6271;0.6396;0.1285;0.5458;0.6236
scene;ESL-DT;2;Fold 9/10;0.5840;0.6035;0.6167;0.1299;0.5333;0.6014
scene;ECC;2;Fold 6/10;0.5871;0.5947;0.8029;0.1570;0.3776;0.6596
scene;ECC;4;Fold 0/10;0.6639;0.6819;0.7566;0.1120;0.5560;0.7006
scene;ECC;4;Fold 1/10;0.6418;0.6701;0.7075;0.1231;0.5477;0.6736
scene;ECC;4;Fold 2/10;0.6750;0.6909;0.7490;0.1113;0.5851;0.7054
scene;ECC;4;Fold 3/10;0.6362;0.6508;0.7241;0.1293;0.5353;0.6708
scene;ECC;4;Fold 4/10;0.6266;0.6404;0.7137;0.1293;0.5270;0.6611
scene;ECC;4;Fold 5/10;0.7261;0.7469;0.7759;0.0947;0.6556;0.7497
scene;ECC;4;Fold 6/10;0.6798;0.6881;0.7635;0.1065;0.5892;0.7102
scene;ECC;4;Fold 7/10;0.6160;0.6375;0.7188;0.1229;0.4917;0.6590
scene;ECC;4;Fold 8/10;0.6826;0.6979;0.7583;0.1069;0.5917;0.7132
scene;ECC;4;Fold 9/10;0.6347;0.6569;0.7167;0.1250;0.5333;0.6694
scene;ECC;2;Fold 7/10;0.5656;0.5840;0.7771;0.1785;0.3542;0.6403
scene;ECC-DT;4;Fold 0/10;0.6501;0.6743;0.6715;0.1051;0.6058;0.6653
scene;ECC-DT;4;Fold 1/10;0.5809;0.6141;0.5934;0.1238;0.5353;0.5961
scene;ECC-DT;4;Fold 2/10;0.6058;0.6266;0.6390;0.1141;0.5519;0.6238
scene;ECC-DT;4;Fold 3/10;0.6093;0.6266;0.6245;0.1107;0.5768;0.6203
scene;ECC-DT;4;Fold 4/10;0.5913;0.6017;0.6162;0.1183;0.5560;0.6030
scene;ECC-DT;4;Fold 5/10;0.6660;0.6950;0.6846;0.0913;0.6183;0.6819
scene;ECC-DT;4;Fold 6/10;0.6390;0.6535;0.6701;0.0982;0.5934;0.6542
scene;ECC-DT;4;Fold 7/10;0.6021;0.6313;0.6208;0.1076;0.5542;0.6181
scene;ECC-DT;4;Fold 8/10;0.6556;0.6792;0.6792;0.1062;0.6083;0.6715
scene;ECC-DT;4;Fold 9/10;0.5875;0.6083;0.6083;0.1222;0.5458;0.6014
scene;ECC;2;Fold 8/10;0.6101;0.6264;0.7792;0.1451;0.4333;0.6710
scene;EPS;4;Fold 0/10;0.6549;0.6729;0.7206;0.1189;0.5726;0.6831
scene;EPS;4;Fold 1/10;0.6604;0.6833;0.7365;0.1176;0.5602;0.6941
scene;EPS;4;Fold 2/10;0.6722;0.6888;0.7303;0.1155;0.5975;0.6971
scene;EPS;4;Fold 3/10;0.5892;0.6037;0.6784;0.1418;0.4855;0.6245
scene;EPS;4;Fold 4/10;0.6667;0.6784;0.7241;0.1141;0.5975;0.6902
scene;EPS;4;Fold 5/10;0.6383;0.6639;0.7199;0.1238;0.5311;0.6743
scene;EPS;4;Fold 6/10;0.6051;0.6141;0.6950;0.1390;0.5062;0.6390
scene;EPS;4;Fold 7/10;0.6549;0.6722;0.7229;0.1174;0.5708;0.6833
scene;EPS;4;Fold 8/10;0.6563;0.6813;0.7167;0.1174;0.5708;0.6854
scene;EPS;4;Fold 9/10;0.6361;0.6604;0.7063;0.1167;0.5417;0.6681
scene;ECC;2;Fold 9/10;0.5522;0.5738;0.6563;0.1528;0.4292;0.5943
scene;EPS-DT;4;Fold 0/10;0.6425;0.6577;0.6943;0.1252;0.5768;0.6646
scene;EPS-DT;4;Fold 1/10;0.6072;0.6390;0.6224;0.1238;0.5602;0.6231
scene;EPS-DT;4;Fold 2/10;0.6466;0.6556;0.6992;0.1272;0.5851;0.6674
scene;EPS-DT;4;Fold 3/10;0.5622;0.5788;0.5892;0.1252;0.5187;0.5768
scene;EPS-DT;4;Fold 4/10;0.6307;0.6473;0.6515;0.1079;0.5934;0.6432
scene;EPS-DT;4;Fold 5/10;0.6383;0.6660;0.6888;0.1266;0.5602;0.6646
scene;EPS-DT;4;Fold 6/10;0.5768;0.5851;0.5934;0.1189;0.5519;0.5851
scene;EPS-DT;4;Fold 7/10;0.6146;0.6354;0.6250;0.1097;0.5833;0.6250
scene;EPS-DT;4;Fold 8/10;0.5771;0.5979;0.6500;0.1493;0.4833;0.6083
scene;EPS-DT;4;Fold 9/10;0.5889;0.6167;0.6333;0.1382;0.5167;0.6132
