basename;method;en_size;fold;ExampleBasedAccuracy;ExampleBasedPrecision;ExampleBasedRecall;HammingLoss;SubsetAccuracy;ExampleBasedFMeasure
yeast;ECC;2;Fold 0/10;0.4504;0.5119;0.7492;0.3055;0.0702;0.5803
yeast;ECC;2;Fold 1/10;0.4790;0.5527;0.7432;0.2872;0.0744;0.6093
yeast;ECC-DT;2;Fold 0/10;0.4276;0.5126;0.6469;0.3164;0.1157;0.5441
yeast;ESL;4;Fold 0/10;0.4399;0.5746;0.6091;0.2580;0.0909;0.5595
yeast;ESL;4;Fold 1/10;0.4760;0.6113;0.6399;0.2500;0.1074;0.5949
yeast;ESL;4;Fold 2/10;0.4631;0.5670;0.6520;0.2565;0.1281;0.5812
yeast;ESL;4;Fold 3/10;0.4750;0.5892;0.6581;0.2535;0.1074;0.5905
yeast;ESL;4;Fold 4/10;0.4580;0.5971;0.5999;0.2479;0.0909;0.5722
yeast;ESL;4;Fold 5/10;0.4804;0.5914;0.6607;0.2468;0.1116;0.5972
yeast;ESL;4;Fold 6/10;0.4792;0.6169;0.6149;0.2406;0.1240;0.5905
yeast;ESL;4;Fold 7/10;0.4594;0.5781;0.6659;0.2582;0.0830;0.5855
yeast;ESL;4;Fold 8/10;0.5011;0.5961;0.7065;0.2374;0.0871;0.6207
yeast;ESL;4;Fold 9/10;0.4982;0.6166;0.6594;0.2404;0.1286;0.6108
yeast;ECC-DT;2;Fold 1/10;0.4620;0.5760;0.6350;0.2890;0.1157;0.5788
yeast;ESL-DT;4;Fold 0/10;0.4251;0.5890;0.5469;0.2462;0.1074;0.5357
yeast;ESL-DT;4;Fold 1/10;0.4584;0.6415;0.5704;0.2379;0.1074;0.5721
yeast;ESL-DT;4;Fold 2/10;0.4080;0.5077;0.5927;0.3022;0.0909;0.5221
yeast;ESL-DT;4;Fold 3/10;0.4423;0.5930;0.5530;0.2470;0.1281;0.5441
yeast;ESL-DT;4;Fold 4/10;0.4379;0.6218;0.5276;0.2376;0.0868;0.5450
yeast;ESL-DT;4;Fold 5/10;0.4724;0.6308;0.5869;0.2228;0.1240;0.5804
yeast;ESL-DT;4;Fold 6/10;0.4565;0.5735;0.6232;0.2774;0.1157;0.5686
yeast;ESL-DT;4;Fold 7/10;0.4382;0.6102;0.5711;0.2401;0.0954;0.5548
yeast;ESL-DT;4;Fold 8/10;0.4810;0.6190;0.6174;0.2282;0.1079;0.5914
yeast;ESL-DT;4;Fold 9/10;0.4574;0.6347;0.5618;0.2368;0.1369;0.5660
yeast;ECC-DT;2;Fold 2/10;0.3985;0.5240;0.5555;0.2816;0.0909;0.5108
yeast;ECC;8;Fold 0/10;0.5170;0.6696;0.6388;0.2034;0.1653;0.6250
yeast;ECC;8;Fold 1/10;0.5443;0.7045;0.6600;0.2031;0.2107;0.6551
yeast;ECC;8;Fold 2/10;0.4879;0.6300;0.6244;0.2184;0.1322;0.5992
yeast;ECC;8;Fold 3/10;0.5024;0.6449;0.6126;0.2202;0.1860;0.6015
yeast;ECC;8;Fold 4/10;0.5283;0.6789;0.6493;0.2048;0.1694;0.6350
yeast;ECC;8;Fold 5/10;0.5142;0.6582;0.6443;0.2166;0.1694;0.6212
yeast;ECC;8;Fold 6/10;0.5261;0.6787;0.6416;0.2063;0.1736;0.6312
yeast;ECC;8;Fold 7/10;0.5164;0.6483;0.6594;0.2110;0.1577;0.6247
yeast;ECC;8;Fold 8/10;0.5421;0.6894;0.6686;0.1944;0.1950;0.6510
yeast;ECC;8;Fold 9/10;0.5464;0.6852;0.6483;0.1965;0.2241;0.6428
yeast;ECC-DT;2;Fold 3/10;0.3890;0.5404;0.5088;0.2860;0.0950;0.4958
yeast;ECC-DT;8;Fold 0/10;0.4941;0.6851;0.5844;0.1986;0.1612;0.5992
yeast;ECC-DT;8;Fold 1/10;0.5097;0.7099;0.5925;0.2057;0.1777;0.6181
yeast;ECC-DT;8;Fold 2/10;0.4600;0.6344;0.5679;0.2202;0.1322;0.5687
yeast;ECC-DT;8;Fold 3/10;0.4748;0.6737;0.5488;0.2178;0.1570;0.5753
yeast;ECC-DT;8;Fold 4/10;0.4854;0.6698;0.5656;0.2122;0.1694;0.5892
yeast;ECC-DT;8;Fold 5/10;0.4910;0.6824;0.5876;0.2099;0.1446;0.5991
yeast;ECC-DT;8;Fold 6/10;0.5058;0.6943;0.5923;0.2022;0.1694;0.6097
yeast;ECC-DT;8;Fold 7/10;0.4967;0.6751;0.6012;0.2060;0.1577;0.6042
yeast;ECC-DT;8;Fold 8/10;0.5261;0.7118;0.6119;0.1867;0.1950;0.6294
yeast;ECC-DT;8;Fold 9/10;0.5242;0.6992;0.5982;0.1959;0.2075;0.6200
yeast;ECC-DT;2;Fold 4/10;0.4196;0.5205;0.6117;0.3208;0.1033;0.5348
yeast;EPS;8;Fold 0/10;0.4972;0.6670;0.6135;0.2104;0.1446;0.6100
yeast;EPS;8;Fold 1/10;0.4912;0.6268;0.6162;0.2367;0.1901;0.5920
yeast;EPS;8;Fold 2/10;0.4872;0.6311;0.6107;0.2178;0.1488;0.5960
yeast;EPS;8;Fold 3/10;0.4589;0.6138;0.5682;0.2335;0.1281;0.5617
yeast;EPS;8;Fold 4/10;0.5104;0.6875;0.6103;0.2069;0.1694;0.6202
yeast;EPS;8;Fold 5/10;0.4889;0.6632;0.5951;0.2220;0.1736;0.5955
yeast;EPS;8;Fold 6/10;0.5382;0.6684;0.6588;0.2131;0.2190;0.6382
yeast;EPS;8;Fold 7/10;0.4600;0.6180;0.5914;0.2353;0.1203;0.5745
yeast;EPS;8;Fold 8/10;0.5077;0.6739;0.6244;0.2045;0.1411;0.6196
yeast;EPS;8;Fold 9/10;0.5001;0.6052;0.6497;0.2300;0.1743;0.6030
yeast;ECC-DT;2;Fold 5/10;0.4477;0.5376;0.6349;0.2966;0.1364;0.5574
yeast;EPS-DT;8;Fold 0/10;0.4494;0.6415;0.5408;0.2181;0.1281;0.5551
yeast;EPS-DT;8;Fold 1/10;0.4692;0.6112;0.5821;0.2462;0.1818;0.5672
yeast;EPS-DT;8;Fold 2/10;0.4556;0.6251;0.5624;0.2223;0.1198;0.5621
yeast;EPS-DT;8;Fold 3/10;0.4497;0.6287;0.5401;0.2308;0.1364;0.5508
yeast;EPS-DT;8;Fold 4/10;0.4848;0.6888;0.5744;0.2131;0.1570;0.5960
yeast;EPS-DT;8;Fold 5/10;0.4584;0.6461;0.5467;0.2264;0.1570;0.5617
yeast;EPS-DT;8;Fold 6/10;0.4774;0.6803;0.5475;0.2161;0.1612;0.5806
yeast;EPS-DT;8;Fold 7/10;0.4427;0.6271;0.5369;0.2365;0.1452;0.5471
yeast;EPS-DT;8;Fold 8/10;0.5024;0.6695;0.5823;0.1998;0.1909;0.5987
yeast;EPS-DT;8;Fold 9/10;0.4872;0.6006;0.6221;0.2288;0.1743;0.5862
yeast;ECC-DT;2;Fold 6/10;0.4424;0.5515;0.6276;0.2966;0.1116;0.5575
yeast;ESL;8;Fold 0/10;0.4795;0.6300;0.6201;0.2214;0.1157;0.5939
yeast;ESL;8;Fold 1/10;0.4892;0.6619;0.5990;0.2217;0.1405;0.5996
yeast;ESL;8;Fold 2/10;0.4618;0.6081;0.5976;0.2341;0.1281;0.5761
yeast;ESL;8;Fold 3/10;0.4683;0.6221;0.5942;0.2311;0.1322;0.5765
yeast;ESL;8;Fold 4/10;0.5072;0.6563;0.6199;0.2122;0.1612;0.6144
yeast;ESL;8;Fold 5/10;0.4893;0.6404;0.6219;0.2217;0.1322;0.6016
yeast;ESL;8;Fold 6/10;0.4916;0.6642;0.6004;0.2199;0.1488;0.5992
yeast;ESL;8;Fold 7/10;0.4757;0.6426;0.6157;0.2297;0.1286;0.5927
yeast;ESL;8;Fold 8/10;0.5147;0.6586;0.6453;0.2075;0.1328;0.6276
yeast;ESL;8;Fold 9/10;0.5168;0.6618;0.6317;0.2095;0.1660;0.6203
yeast;ECC-DT;2;Fold 7/10;0.3763;0.4827;0.5775;0.3260;0.0581;0.4987
yeast;ESL-DT;8;Fold 0/10;0.4566;0.6333;0.5738;0.2228;0.1033;0.5701
yeast;ESL-DT;8;Fold 1/10;0.4730;0.6688;0.5566;0.2214;0.1405;0.5796
yeast;ESL-DT;8;Fold 2/10;0.4553;0.6264;0.5692;0.2255;0.1405;0.5668
yeast;ESL-DT;8;Fold 3/10;0.4437;0.6155;0.5449;0.2341;0.1157;0.5501
yeast;ESL-DT;8;Fold 4/10;0.4825;0.6819;0.5670;0.2119;0.1322;0.5913
yeast;ESL-DT;8;Fold 5/10;0.4789;0.6568;0.5813;0.2155;0.1405;0.5878
yeast;ESL-DT;8;Fold 6/10;0.4799;0.6692;0.5702;0.2175;0.1405;0.5838
yeast;ESL-DT;8;Fold 7/10;0.4545;0.6442;0.5673;0.2282;0.1203;0.5692
yeast;ESL-DT;8;Fold 8/10;0.5136;0.6879;0.6113;0.2012;0.1618;0.6197
yeast;ESL-DT;8;Fold 9/10;0.4886;0.6812;0.5747;0.2066;0.1618;0.5928
yeast;ECC-DT;2;Fold 8/10;0.3927;0.4977;0.5894;0.3177;0.0871;0.5136
yeast;ECC;16;Fold 0/10;0.5066;0.6837;0.6040;0.1986;0.1529;0.6140
yeast;ECC;16;Fold 1/10;0.5546;0.7528;0.6352;0.1860;0.2190;0.6606
yeast;ECC;16;Fold 2/10;0.4939;0.6669;0.6055;0.2063;0.1364;0.6052
yeast;ECC;16;Fold 3/10;0.4928;0.6654;0.5891;0.2152;0.1901;0.5942
yeast;ECC;16;Fold 4/10;0.5352;0.7130;0.6218;0.1960;0.2107;0.6366
yeast;ECC;16;Fold 5/10;0.5191;0.6985;0.6198;0.2037;0.1942;0.6213
yeast;ECC;16;Fold 6/10;0.5476;0.7217;0.6341;0.1880;0.2066;0.6492
yeast;ECC;16;Fold 7/10;0.4897;0.6657;0.5948;0.2122;0.1660;0.5985
yeast;ECC;16;Fold 8/10;0.5582;0.7353;0.6491;0.1761;0.1950;0.6638
yeast;ECC;16;Fold 9/10;0.5476;0.7055;0.6295;0.1870;0.2282;0.6419
yeast;ECC-DT;2;Fold 9/10;0.4175;0.5206;0.6127;0.3038;0.0954;0.5378
yeast;ECC-DT;16;Fold 0/10;0.4975;0.6852;0.5852;0.1978;0.1570;0.6038
yeast;ECC-DT;16;Fold 1/10;0.5428;0.7585;0.6072;0.1857;0.2107;0.6466
yeast;ECC-DT;16;Fold 2/10;0.4815;0.6717;0.5807;0.2066;0.1405;0.5930
yeast;ECC-DT;16;Fold 3/10;0.4836;0.6894;0.5558;0.2102;0.1777;0.5846
yeast;ECC-DT;16;Fold 4/10;0.5208;0.7262;0.5928;0.1942;0.1983;0.6226
yeast;ECC-DT;16;Fold 5/10;0.5063;0.7129;0.5881;0.2022;0.1901;0.6083
yeast;ECC-DT;16;Fold 6/10;0.5388;0.7418;0.6099;0.1865;0.2025;0.6405
yeast;ECC-DT;16;Fold 7/10;0.4767;0.6730;0.5664;0.2101;0.1452;0.5844
yeast;ECC-DT;16;Fold 8/10;0.5408;0.7427;0.6129;0.1775;0.1909;0.6437
yeast;ECC-DT;16;Fold 9/10;0.5260;0.7120;0.5899;0.1891;0.2241;0.6190
yeast;ECC;2;Fold 2/10;0.4355;0.4953;0.7130;0.3099;0.0702;0.5622
yeast;EPS;2;Fold 0/10;0.4744;0.5448;0.6975;0.2742;0.1612;0.5825
yeast;EPS;16;Fold 0/10;0.4907;0.6864;0.5655;0.1972;0.1653;0.5921
yeast;EPS;16;Fold 1/10;0.5007;0.6479;0.6079;0.2246;0.1942;0.6003
yeast;EPS;16;Fold 2/10;0.4800;0.6685;0.5668;0.2069;0.1488;0.5864
yeast;EPS;16;Fold 3/10;0.4742;0.6635;0.5508;0.2161;0.1694;0.5746
yeast;EPS;16;Fold 4/10;0.5089;0.7121;0.5904;0.1992;0.1612;0.6182
yeast;EPS;16;Fold 5/10;0.5014;0.7001;0.5811;0.2057;0.1901;0.6042
yeast;EPS;16;Fold 6/10;0.5230;0.7348;0.5943;0.1921;0.1777;0.6286
yeast;EPS;16;Fold 7/10;0.4724;0.6589;0.5757;0.2199;0.1535;0.5853
yeast;EPS;16;Fold 8/10;0.5219;0.7295;0.5928;0.1873;0.1784;0.6260
yeast;EPS;16;Fold 9/10;0.5027;0.6197;0.6386;0.2273;0.1992;0.6028
yeast;EPS;2;Fold 1/10;0.5057;0.6034;0.6878;0.2550;0.1818;0.6129
yeast;EPS-DT;16;Fold 0/10;0.4704;0.6645;0.5581;0.2037;0.1446;0.5758
yeast;EPS-DT;16;Fold 1/10;0.4807;0.6207;0.5871;0.2335;0.1860;0.5770
yeast;EPS-DT;16;Fold 2/10;0.4662;0.6454;0.5474;0.2128;0.1446;0.5682
yeast;EPS-DT;16;Fold 3/10;0.4716;0.6566;0.5499;0.2155;0.1612;0.5704
yeast;EPS-DT;16;Fold 4/10;0.5107;0.7125;0.5854;0.1957;0.1736;0.6162
yeast;EPS-DT;16;Fold 5/10;0.5020;0.7089;0.5756;0.2057;0.1983;0.6048
yeast;EPS-DT;16;Fold 6/10;0.5196;0.7285;0.5907;0.1957;0.1860;0.6224
yeast;EPS-DT;16;Fold 7/10;0.4510;0.6519;0.5413;0.2270;0.1494;0.5614
yeast;EPS-DT;16;Fold 8/10;0.5022;0.7090;0.5743;0.1912;0.1701;0.6067
yeast;EPS-DT;16;Fold 9/10;0.5289;0.7104;0.5914;0.1858;0.2324;0.6214
yeast;EPS;2;Fold 2/10;0.4875;0.5626;0.7209;0.2671;0.1364;0.6034
yeast;ESL;16;Fold 0/10;0.4851;0.6711;0.5944;0.2096;0.1240;0.5999
yeast;ESL;16;Fold 1/10;0.4983;0.6961;0.5865;0.2102;0.1612;0.6094
yeast;ESL;16;Fold 2/10;0.4772;0.6414;0.5869;0.2169;0.1405;0.5857
yeast;ESL;16;Fold 3/10;0.4825;0.6495;0.6007;0.2217;0.1446;0.5915
yeast;ESL;16;Fold 4/10;0.5055;0.6828;0.6020;0.2037;0.1529;0.6155
yeast;ESL;16;Fold 5/10;0.5054;0.6799;0.6150;0.2057;0.1446;0.6159
yeast;ESL;16;Fold 6/10;0.4934;0.6862;0.5751;0.2122;0.1694;0.5965
yeast;ESL;16;Fold 7/10;0.4855;0.6639;0.5957;0.2155;0.1411;0.5979
yeast;ESL;16;Fold 8/10;0.5241;0.7060;0.6360;0.1924;0.1369;0.6360
yeast;ESL;16;Fold 9/10;0.5278;0.6878;0.6257;0.1986;0.1743;0.6280
yeast;EPS;2;Fold 3/10;0.4828;0.5762;0.6766;0.2627;0.1694;0.5905
yeast;ESL-DT;16;Fold 0/10;0.4782;0.6581;0.5821;0.2113;0.1198;0.5889
yeast;ESL-DT;16;Fold 1/10;0.4793;0.6901;0.5525;0.2119;0.1529;0.5869
yeast;ESL-DT;16;Fold 2/10;0.4796;0.6579;0.5819;0.2096;0.1322;0.5890
yeast;ESL-DT;16;Fold 3/10;0.4770;0.6534;0.5838;0.2193;0.1488;0.5843
yeast;ESL-DT;16;Fold 4/10;0.4962;0.6902;0.5818;0.2048;0.1405;0.6054
yeast;ESL-DT;16;Fold 5/10;0.5033;0.6954;0.5989;0.2025;0.1446;0.6125
yeast;ESL-DT;16;Fold 6/10;0.5007;0.7029;0.5692;0.2043;0.1860;0.5998
yeast;ESL-DT;16;Fold 7/10;0.4758;0.6754;0.5750;0.2116;0.1577;0.5873
yeast;ESL-DT;16;Fold 8/10;0.5116;0.7094;0.6051;0.1926;0.1328;0.6225
yeast;ESL-DT;16;Fold 9/10;0.5184;0.6936;0.6055;0.1992;0.1784;0.6181
yeast;EPS;2;Fold 4/10;0.4987;0.5757;0.7151;0.2597;0.1818;0.6080
yeast;ECC;32;Fold 0/10;0.5203;0.7126;0.6030;0.1895;0.1818;0.6245
yeast;ECC;32;Fold 1/10;0.5621;0.7732;0.6267;0.1812;0.2438;0.6652
yeast;ECC;32;Fold 2/10;0.4967;0.6824;0.5895;0.2001;0.1777;0.6022
yeast;ECC;32;Fold 3/10;0.4824;0.6820;0.5568;0.2093;0.1736;0.5825
yeast;ECC;32;Fold 4/10;0.5137;0.7172;0.5922;0.1983;0.2025;0.6180
yeast;ECC;32;Fold 5/10;0.5284;0.7272;0.6148;0.1936;0.2314;0.6301
yeast;ECC;32;Fold 6/10;0.5413;0.7502;0.6116;0.1842;0.2190;0.6422
yeast;ECC;32;Fold 7/10;0.4839;0.6751;0.5785;0.2095;0.1701;0.5910
yeast;ECC;32;Fold 8/10;0.5641;0.7544;0.6443;0.1713;0.2116;0.6674
yeast;ECC;32;Fold 9/10;0.5467;0.7335;0.6139;0.1814;0.2324;0.6408
yeast;EPS;2;Fold 5/10;0.5056;0.5885;0.7075;0.2586;0.1901;0.6127
yeast;ECC-DT;32;Fold 0/10;0.5172;0.7180;0.5924;0.1883;0.1860;0.6212
yeast;ECC-DT;32;Fold 1/10;0.5546;0.7751;0.6162;0.1833;0.2314;0.6583
yeast;ECC-DT;32;Fold 2/10;0.4915;0.6802;0.5837;0.2007;0.1653;0.5987
yeast;ECC-DT;32;Fold 3/10;0.4808;0.6777;0.5544;0.2093;0.1694;0.5809
yeast;ECC-DT;32;Fold 4/10;0.5079;0.7278;0.5790;0.1972;0.1860;0.6129
yeast;ECC-DT;32;Fold 5/10;0.5242;0.7317;0.6078;0.1921;0.2231;0.6277
yeast;ECC-DT;32;Fold 6/10;0.5319;0.7493;0.5977;0.1851;0.2107;0.6327
yeast;ECC-DT;32;Fold 7/10;0.4752;0.6730;0.5619;0.2095;0.1701;0.5804
yeast;ECC-DT;32;Fold 8/10;0.5530;0.7611;0.6204;0.1725;0.2075;0.6554
yeast;ECC-DT;32;Fold 9/10;0.5399;0.7315;0.6047;0.1820;0.2241;0.6346
yeast;EPS;2;Fold 6/10;0.5023;0.5959;0.6976;0.2600;0.1612;0.6135
yeast;EPS;32;Fold 0/10;0.4913;0.7276;0.5560;0.1927;0.1529;0.5995
yeast;EPS;32;Fold 1/10;0.5291;0.7718;0.5881;0.1877;0.1777;0.6379
yeast;EPS;32;Fold 2/10;0.4825;0.6908;0.5620;0.2010;0.1653;0.5893
yeast;EPS;32;Fold 3/10;0.4593;0.6777;0.5258;0.2149;0.1446;0.5607
yeast;EPS;32;Fold 4/10;0.5053;0.7237;0.5649;0.1948;0.1818;0.6072
yeast;EPS;32;Fold 5/10;0.4983;0.7402;0.5719;0.1981;0.1694;0.6081
yeast;EPS;32;Fold 6/10;0.5114;0.7372;0.5698;0.1939;0.1983;0.6143
yeast;EPS;32;Fold 7/10;0.4562;0.6811;0.5320;0.2137;0.1411;0.5654
yeast;EPS;32;Fold 8/10;0.5423;0.7493;0.6019;0.1746;0.1950;0.6444
yeast;EPS;32;Fold 9/10;0.5254;0.7325;0.5901;0.1844;0.1992;0.6262
yeast;EPS;2;Fold 7/10;0.4437;0.5222;0.6482;0.2828;0.1286;0.5515
yeast;EPS-DT;32;Fold 0/10;0.5030;0.7236;0.5735;0.1883;0.1570;0.6092
yeast;EPS-DT;32;Fold 1/10;0.5282;0.7593;0.5834;0.1889;0.1860;0.6348
yeast;EPS-DT;32;Fold 2/10;0.4847;0.6651;0.5722;0.2051;0.1529;0.5901
yeast;EPS-DT;32;Fold 3/10;0.4895;0.6808;0.5637;0.2045;0.1694;0.5894
yeast;EPS-DT;32;Fold 4/10;0.5130;0.7191;0.5774;0.1939;0.1818;0.6154
yeast;EPS-DT;32;Fold 5/10;0.5079;0.7357;0.5824;0.1942;0.1860;0.6148
yeast;EPS-DT;32;Fold 6/10;0.5089;0.7254;0.5727;0.1986;0.1942;0.6117
yeast;EPS-DT;32;Fold 7/10;0.4555;0.6695;0.5377;0.2205;0.1535;0.5653
yeast;EPS-DT;32;Fold 8/10;0.5394;0.7398;0.6044;0.1781;0.1867;0.6418
yeast;EPS-DT;32;Fold 9/10;0.5309;0.7178;0.5966;0.1838;0.2116;0.6276
yeast;EPS;2;Fold 8/10;0.4519;0.5332;0.6440;0.2762;0.1328;0.5572
yeast;ESL;32;Fold 0/10;0.5007;0.6835;0.6052;0.2034;0.1322;0.6121
yeast;ESL;32;Fold 1/10;0.4891;0.7037;0.5655;0.2099;0.1488;0.5990
yeast;ESL;32;Fold 2/10;0.4589;0.6315;0.5627;0.2223;0.1281;0.5690
yeast;ESL;32;Fold 3/10;0.4794;0.6611;0.5858;0.2169;0.1281;0.5902
yeast;ESL;32;Fold 4/10;0.5118;0.7039;0.6002;0.1981;0.1446;0.6211
yeast;ESL;32;Fold 5/10;0.5088;0.6798;0.6123;0.2040;0.1653;0.6160
yeast;ESL;32;Fold 6/10;0.4943;0.6942;0.5730;0.2072;0.1612;0.5992
yeast;ESL;32;Fold 7/10;0.4914;0.6795;0.5922;0.2078;0.1577;0.6044
yeast;ESL;32;Fold 8/10;0.5141;0.7127;0.6151;0.1950;0.1328;0.6291
yeast;ESL;32;Fold 9/10;0.5161;0.6929;0.6087;0.1992;0.1577;0.6185
yeast;EPS;2;Fold 9/10;0.5027;0.5727;0.7191;0.2608;0.1701;0.6123
yeast;ESL-DT;32;Fold 0/10;0.4938;0.6673;0.5966;0.2066;0.1446;0.6025
yeast;ESL-DT;32;Fold 1/10;0.4817;0.6970;0.5548;0.2134;0.1405;0.5904
yeast;ESL-DT;32;Fold 2/10;0.4667;0.6445;0.5674;0.2164;0.1405;0.5757
yeast;ESL-DT;32;Fold 3/10;0.4789;0.6679;0.5777;0.2143;0.1281;0.5875
yeast;ESL-DT;32;Fold 4/10;0.5081;0.6976;0.5975;0.2031;0.1446;0.6168
yeast;ESL-DT;32;Fold 5/10;0.5068;0.6878;0.6036;0.2013;0.1570;0.6129
yeast;ESL-DT;32;Fold 6/10;0.4986;0.7029;0.5719;0.2060;0.1694;0.6023
yeast;ESL-DT;32;Fold 7/10;0.4958;0.6924;0.5904;0.2030;0.1618;0.6077
yeast;ESL-DT;32;Fold 8/10;0.5196;0.7253;0.6066;0.1876;0.1494;0.6298
yeast;ESL-DT;32;Fold 9/10;0.5140;0.6985;0.6005;0.1992;0.1701;0.6151
yeast;ECC;2;Fold 3/10;0.4402;0.5110;0.6868;0.3096;0.0826;0.5589
yeast;EPS-DT;2;Fold 0/10;0.4393;0.5626;0.5727;0.2506;0.1405;0.5363
yeast;ECC;64;Fold 0/10;0.5126;0.7239;0.5835;0.1871;0.1818;0.6164
yeast;ECC;64;Fold 1/10;0.5578;0.7776;0.6180;0.1812;0.2231;0.6616
yeast;ECC;64;Fold 2/10;0.4972;0.6952;0.5843;0.1981;0.1860;0.6038
yeast;ECC;64;Fold 3/10;0.4921;0.6888;0.5641;0.2063;0.1860;0.5904
yeast;ECC;64;Fold 4/10;0.5319;0.7284;0.6012;0.1913;0.2149;0.6315
yeast;ECC;64;Fold 5/10;0.5301;0.7479;0.5957;0.1871;0.2149;0.6294
yeast;ECC;64;Fold 6/10;0.5287;0.7547;0.5887;0.1851;0.2149;0.6293
yeast;ECC;64;Fold 7/10;0.4734;0.6799;0.5551;0.2090;0.1784;0.5802
yeast;ECC;64;Fold 8/10;0.5671;0.7620;0.6434;0.1686;0.2324;0.6685
yeast;ECC;64;Fold 9/10;0.5357;0.7381;0.5964;0.1820;0.2158;0.6320
yeast;EPS-DT;2;Fold 1/10;0.4583;0.5995;0.5842;0.2577;0.1612;0.5612
yeast;ECC-DT;64;Fold 0/10;0.5125;0.7218;0.5835;0.1868;0.1860;0.6162
yeast;ECC-DT;64;Fold 1/10;0.5556;0.7777;0.6114;0.1806;0.2231;0.6579
yeast;ECC-DT;64;Fold 2/10;0.4935;0.6928;0.5798;0.1989;0.1818;0.5996
yeast;ECC-DT;64;Fold 3/10;0.4883;0.6870;0.5588;0.2078;0.1777;0.5875
yeast;ECC-DT;64;Fold 4/10;0.5314;0.7329;0.5997;0.1892;0.2107;0.6320
yeast;ECC-DT;64;Fold 5/10;0.5269;0.7477;0.5900;0.1874;0.2107;0.6254
yeast;ECC-DT;64;Fold 6/10;0.5314;0.7562;0.5931;0.1833;0.2149;0.6326
yeast;ECC-DT;64;Fold 7/10;0.4772;0.6885;0.5558;0.2048;0.1743;0.5847
yeast;ECC-DT;64;Fold 8/10;0.5628;0.7602;0.6374;0.1695;0.2199;0.6648
yeast;ECC-DT;64;Fold 9/10;0.5278;0.7365;0.5847;0.1841;0.2158;0.6235
yeast;EPS-DT;2;Fold 2/10;0.4467;0.5703;0.5667;0.2453;0.1694;0.5403
yeast;EPS;64;Fold 0/10;0.4823;0.7314;0.5428;0.1936;0.1405;0.5917
yeast;EPS;64;Fold 1/10;0.5278;0.7871;0.5737;0.1836;0.1942;0.6366
yeast;EPS;64;Fold 2/10;0.4743;0.6877;0.5462;0.2013;0.1570;0.5802
yeast;EPS;64;Fold 3/10;0.4704;0.7066;0.5343;0.2048;0.1529;0.5738
yeast;EPS;64;Fold 4/10;0.5157;0.7459;0.5725;0.1901;0.2025;0.6172
yeast;EPS;64;Fold 5/10;0.4993;0.7431;0.5649;0.1969;0.1736;0.6060
yeast;EPS;64;Fold 6/10;0.5075;0.7433;0.5635;0.1919;0.1901;0.6121
yeast;EPS;64;Fold 7/10;0.4623;0.7066;0.5329;0.2063;0.1452;0.5743
yeast;EPS;64;Fold 8/10;0.5201;0.7575;0.5771;0.1805;0.1867;0.6272
yeast;EPS;64;Fold 9/10;0.5271;0.7426;0.5889;0.1814;0.1950;0.6283
yeast;EPS-DT;2;Fold 3/10;0.4480;0.5714;0.5862;0.2565;0.1446;0.5504
yeast;EPS-DT;64;Fold 0/10;0.4997;0.7168;0.5762;0.1892;0.1612;0.6074
yeast;EPS-DT;64;Fold 1/10;0.5378;0.7700;0.5931;0.1833;0.1942;0.6443
yeast;EPS-DT;64;Fold 2/10;0.5004;0.6867;0.5840;0.1975;0.1612;0.6046
yeast;EPS-DT;64;Fold 3/10;0.4984;0.6991;0.5720;0.2016;0.1818;0.5992
yeast;EPS-DT;64;Fold 4/10;0.5208;0.7353;0.5876;0.1898;0.1777;0.6275
yeast;EPS-DT;64;Fold 5/10;0.5158;0.7342;0.5879;0.1936;0.1983;0.6205
yeast;EPS-DT;64;Fold 6/10;0.5169;0.7259;0.5765;0.1921;0.2025;0.6166
yeast;EPS-DT;64;Fold 7/10;0.4782;0.6914;0.5545;0.2075;0.1660;0.5842
yeast;EPS-DT;64;Fold 8/10;0.5356;0.7482;0.5929;0.1772;0.2033;0.6372
yeast;EPS-DT;64;Fold 9/10;0.5435;0.7384;0.6077;0.1775;0.2241;0.6406
yeast;EPS-DT;2;Fold 4/10;0.4793;0.6037;0.6132;0.2426;0.1860;0.5810
yeast;ESL;64;Fold 0/10;0.4893;0.6841;0.5854;0.2028;0.1281;0.5984
yeast;ESL;64;Fold 1/10;0.5024;0.7127;0.5722;0.2048;0.1570;0.6108
yeast;ESL;64;Fold 2/10;0.4569;0.6337;0.5651;0.2223;0.1322;0.5678
yeast;ESL;64;Fold 3/10;0.4700;0.6552;0.5679;0.2214;0.1198;0.5776
yeast;ESL;64;Fold 4/10;0.5015;0.7043;0.5866;0.1995;0.1281;0.6119
yeast;ESL;64;Fold 5/10;0.4791;0.6740;0.5766;0.2128;0.1364;0.5882
yeast;ESL;64;Fold 6/10;0.4904;0.6967;0.5719;0.2087;0.1446;0.5974
yeast;ESL;64;Fold 7/10;0.4758;0.6672;0.5759;0.2134;0.1411;0.5900
yeast;ESL;64;Fold 8/10;0.5047;0.6957;0.6067;0.1977;0.1245;0.6164
yeast;ESL;64;Fold 9/10;0.5077;0.6950;0.5977;0.1992;0.1494;0.6115
yeast;EPS-DT;2;Fold 5/10;0.4808;0.5955;0.6058;0.2479;0.1942;0.5759
yeast;ESL-DT;64;Fold 0/10;0.4923;0.6770;0.5860;0.2025;0.1405;0.5976
yeast;ESL-DT;64;Fold 1/10;0.4910;0.7068;0.5579;0.2081;0.1488;0.5981
yeast;ESL-DT;64;Fold 2/10;0.4610;0.6443;0.5659;0.2169;0.1405;0.5710
yeast;ESL-DT;64;Fold 3/10;0.4734;0.6570;0.5737;0.2196;0.1198;0.5815
yeast;ESL-DT;64;Fold 4/10;0.5007;0.6960;0.5884;0.2004;0.1364;0.6085
yeast;ESL-DT;64;Fold 5/10;0.4932;0.6834;0.5873;0.2054;0.1529;0.5996
yeast;ESL-DT;64;Fold 6/10;0.4940;0.6967;0.5729;0.2084;0.1570;0.6000
yeast;ESL-DT;64;Fold 7/10;0.4835;0.6798;0.5807;0.2075;0.1535;0.5954
yeast;ESL-DT;64;Fold 8/10;0.5104;0.7038;0.5999;0.1938;0.1452;0.6176
yeast;ESL-DT;64;Fold 9/10;0.5145;0.6909;0.6073;0.1980;0.1660;0.6169
yeast;EPS-DT;2;Fold 6/10;0.4928;0.6210;0.6066;0.2376;0.1942;0.5881
yeast;ECC;128;Fold 0/10;0.5117;0.7215;0.5738;0.1854;0.1983;0.6111
yeast;ECC;128;Fold 1/10;0.5480;0.7727;0.6092;0.1821;0.1983;0.6550
yeast;ECC;128;Fold 2/10;0.4927;0.6992;0.5742;0.1969;0.1694;0.5982
yeast;ECC;128;Fold 3/10;0.4880;0.6909;0.5525;0.2037;0.1777;0.5861
yeast;ECC;128;Fold 4/10;0.5245;0.7450;0.5891;0.1883;0.2190;0.6268
yeast;ECC;128;Fold 5/10;0.5270;0.7427;0.6068;0.1892;0.2149;0.6307
yeast;ECC;128;Fold 6/10;0.5402;0.7515;0.5998;0.1830;0.2521;0.6361
yeast;ECC;128;Fold 7/10;0.4828;0.7006;0.5627;0.2039;0.1784;0.5912
yeast;ECC;128;Fold 8/10;0.5637;0.7611;0.6330;0.1686;0.2324;0.6636
yeast;ECC;128;Fold 9/10;0.5403;0.7394;0.5973;0.1790;0.2324;0.6327
yeast;EPS-DT;2;Fold 7/10;0.3947;0.5145;0.5136;0.2742;0.1162;0.4888
yeast;ECC-DT;128;Fold 0/10;0.5111;0.7245;0.5752;0.1851;0.1942;0.6124
yeast;ECC-DT;128;Fold 1/10;0.5488;0.7768;0.6078;0.1812;0.1942;0.6558
yeast;ECC-DT;128;Fold 2/10;0.4918;0.6972;0.5737;0.1981;0.1653;0.5977
yeast;ECC-DT;128;Fold 3/10;0.4925;0.6954;0.5569;0.2031;0.1818;0.5913
yeast;ECC-DT;128;Fold 4/10;0.5257;0.7421;0.5920;0.1889;0.2149;0.6281
yeast;ECC-DT;128;Fold 5/10;0.5293;0.7455;0.6084;0.1874;0.2149;0.6327
yeast;ECC-DT;128;Fold 6/10;0.5379;0.7504;0.5974;0.1836;0.2438;0.6347
yeast;ECC-DT;128;Fold 7/10;0.4804;0.7023;0.5612;0.2054;0.1701;0.5898
yeast;ECC-DT;128;Fold 8/10;0.5599;0.7561;0.6309;0.1701;0.2241;0.6602
yeast;ECC-DT;128;Fold 9/10;0.5406;0.7387;0.5985;0.1790;0.2324;0.6339
yeast;EPS-DT;2;Fold 8/10;0.4108;0.5283;0.5320;0.2691;0.1286;0.5047
yeast;EPS;128;Fold 0/10;0.4866;0.7472;0.5422;0.1886;0.1488;0.5952
yeast;EPS;128;Fold 1/10;0.5275;0.7968;0.5728;0.1824;0.1901;0.6373
yeast;EPS;128;Fold 2/10;0.4616;0.6942;0.5183;0.2034;0.1364;0.5673
yeast;EPS;128;Fold 3/10;0.4631;0.6993;0.5166;0.2040;0.1529;0.5609
yeast;EPS;128;Fold 4/10;0.5115;0.7493;0.5609;0.1895;0.1860;0.6127
yeast;EPS;128;Fold 5/10;0.4957;0.7582;0.5534;0.1939;0.1736;0.6028
yeast;EPS;128;Fold 6/10;0.5097;0.7606;0.5656;0.1898;0.1860;0.6159
yeast;EPS;128;Fold 7/10;0.4610;0.7144;0.5215;0.2060;0.1618;0.5674
yeast;EPS;128;Fold 8/10;0.5254;0.7583;0.5749;0.1761;0.1992;0.6273
yeast;EPS;128;Fold 9/10;0.5192;0.7424;0.5722;0.1820;0.1950;0.6171
yeast;EPS-DT;2;Fold 9/10;0.4788;0.5916;0.6305;0.2413;0.1577;0.5825
yeast;EPS-DT;128;Fold 0/10;0.4975;0.7231;0.5653;0.1898;0.1488;0.6047
yeast;EPS-DT;128;Fold 1/10;0.5460;0.7825;0.5995;0.1789;0.1860;0.6531
yeast;EPS-DT;128;Fold 2/10;0.4894;0.6898;0.5695;0.2010;0.1612;0.5944
yeast;EPS-DT;128;Fold 3/10;0.4866;0.6875;0.5651;0.2045;0.1736;0.5888
yeast;EPS-DT;128;Fold 4/10;0.5205;0.7280;0.5792;0.1916;0.1901;0.6224
yeast;EPS-DT;128;Fold 5/10;0.5217;0.7538;0.5913;0.1880;0.1983;0.6260
yeast;EPS-DT;128;Fold 6/10;0.5245;0.7482;0.5800;0.1883;0.2149;0.6250
yeast;EPS-DT;128;Fold 7/10;0.4696;0.6921;0.5509;0.2116;0.1577;0.5798
yeast;EPS-DT;128;Fold 8/10;0.5412;0.7510;0.5992;0.1740;0.2075;0.6427
yeast;EPS-DT;128;Fold 9/10;0.5364;0.7338;0.5966;0.1820;0.2199;0.6320
yeast;ECC;2;Fold 4/10;0.4418;0.5072;0.7127;0.3152;0.0702;0.5679
yeast;ESL;2;Fold 0/10;0.4139;0.5030;0.6709;0.3046;0.0579;0.5420
yeast;ESL;128;Fold 0/10;0.4492;0.6195;0.5836;0.2335;0.0868;0.5716
yeast;ESL;128;Fold 1/10;0.4861;0.6657;0.5998;0.2234;0.1198;0.5999
yeast;ESL;128;Fold 2/10;0.4342;0.6029;0.5699;0.2456;0.0909;0.5583
yeast;ESL;128;Fold 3/10;0.4686;0.6315;0.5746;0.2285;0.1198;0.5749
yeast;ESL;128;Fold 4/10;0.4398;0.5490;0.6235;0.2931;0.1198;0.5546
yeast;ESL;128;Fold 5/10;0.4726;0.6584;0.5864;0.2237;0.1116;0.5870
yeast;ESL;128;Fold 6/10;0.4689;0.6694;0.5693;0.2276;0.1074;0.5817
yeast;ESL;128;Fold 7/10;0.4101;0.5199;0.6053;0.2919;0.0664;0.5334
yeast;ESL;128;Fold 8/10;0.4834;0.6831;0.5964;0.2107;0.0954;0.6009
yeast;ESL;128;Fold 9/10;0.5101;0.6755;0.6242;0.2078;0.1618;0.6165
yeast;ESL;2;Fold 1/10;0.4597;0.5588;0.6974;0.2910;0.0702;0.5879
yeast;ESL-DT;128;Fold 0/10;0.4423;0.6162;0.5637;0.2320;0.0909;0.5614
yeast;ESL-DT;128;Fold 1/10;0.4836;0.6567;0.5971;0.2264;0.1116;0.5969
yeast;ESL-DT;128;Fold 2/10;0.4187;0.5913;0.5524;0.2524;0.0868;0.5411
yeast;ESL-DT;128;Fold 3/10;0.4709;0.6275;0.5868;0.2311;0.1281;0.5765
yeast;ESL-DT;128;Fold 4/10;0.4562;0.6371;0.5708;0.2285;0.0950;0.5700
yeast;ESL-DT;128;Fold 5/10;0.4568;0.6431;0.5636;0.2296;0.1198;0.5669
yeast;ESL-DT;128;Fold 6/10;0.4479;0.6419;0.5549;0.2385;0.0909;0.5633
yeast;ESL-DT;128;Fold 7/10;0.4434;0.6110;0.5733;0.2416;0.1120;0.5577
yeast;ESL-DT;128;Fold 8/10;0.5006;0.6815;0.6104;0.2024;0.1162;0.6128
yeast;ESL-DT;128;Fold 9/10;0.4192;0.5162;0.6204;0.3059;0.0913;0.5388
yeast;ESL;2;Fold 2/10;0.4270;0.4972;0.7165;0.3111;0.0579;0.5589
yeast;ECC;256;Fold 0/10;0.5161;0.7339;0.5784;0.1824;0.1942;0.6177
yeast;ECC;256;Fold 1/10;0.5553;0.7970;0.6090;0.1756;0.2066;0.6620
yeast;ECC;256;Fold 2/10;0.4920;0.7045;0.5730;0.1960;0.1612;0.5981
yeast;ECC;256;Fold 3/10;0.4870;0.6926;0.5559;0.2040;0.1901;0.5853
yeast;ECC;256;Fold 4/10;0.5241;0.7445;0.5849;0.1886;0.2066;0.6262
yeast;ECC;256;Fold 5/10;0.5219;0.7486;0.5957;0.1904;0.2149;0.6250
yeast;ECC;256;Fold 6/10;0.5366;0.7556;0.5911;0.1833;0.2521;0.6330
yeast;ECC;256;Fold 7/10;0.4833;0.7113;0.5599;0.2012;0.1701;0.5935
yeast;ECC;256;Fold 8/10;0.5702;0.7627;0.6404;0.1657;0.2365;0.6697
yeast;ECC;256;Fold 9/10;0.5398;0.7444;0.5971;0.1778;0.2199;0.6340
yeast;ESL;2;Fold 3/10;0.4470;0.5265;0.7054;0.2972;0.0744;0.5702
yeast;ECC-DT;256;Fold 0/10;0.5179;0.7318;0.5832;0.1824;0.1942;0.6197
yeast;ECC-DT;256;Fold 1/10;0.5532;0.7957;0.6071;0.1765;0.2025;0.6606
yeast;ECC-DT;256;Fold 2/10;0.4949;0.7063;0.5757;0.1945;0.1612;0.6012
yeast;ECC-DT;256;Fold 3/10;0.4871;0.6881;0.5580;0.2054;0.1942;0.5850
yeast;ECC-DT;256;Fold 4/10;0.5250;0.7449;0.5865;0.1883;0.2066;0.6269
yeast;ECC-DT;256;Fold 5/10;0.5258;0.7476;0.6006;0.1889;0.2231;0.6281
yeast;ECC-DT;256;Fold 6/10;0.5360;0.7546;0.5911;0.1836;0.2521;0.6326
yeast;ECC-DT;256;Fold 7/10;0.4789;0.7028;0.5602;0.2048;0.1660;0.5901
yeast;ECC-DT;256;Fold 8/10;0.5680;0.7585;0.6390;0.1672;0.2324;0.6676
yeast;ECC-DT;256;Fold 9/10;0.5439;0.7448;0.6027;0.1775;0.2282;0.6377
yeast;ESL;2;Fold 4/10;0.4310;0.5279;0.6420;0.2990;0.0579;0.5529
yeast;EPS;256;Fold 0/10;0.4926;0.7437;0.5487;0.1845;0.1405;0.5994
yeast;EPS;256;Fold 1/10;0.5292;0.8013;0.5714;0.1809;0.1942;0.6391
yeast;EPS;256;Fold 2/10;0.4655;0.6965;0.5309;0.2043;0.1364;0.5747
yeast;EPS;256;Fold 3/10;0.4611;0.7089;0.5153;0.2043;0.1570;0.5619
yeast;EPS;256;Fold 4/10;0.5097;0.7476;0.5545;0.1910;0.1694;0.6110
yeast;EPS;256;Fold 5/10;0.5068;0.7548;0.5610;0.1904;0.1942;0.6093
yeast;EPS;256;Fold 6/10;0.5005;0.7515;0.5459;0.1910;0.1942;0.6019
yeast;EPS;256;Fold 7/10;0.4567;0.7107;0.5234;0.2095;0.1245;0.5691
yeast;EPS;256;Fold 8/10;0.5295;0.7790;0.5719;0.1734;0.1950;0.6333
yeast;EPS;256;Fold 9/10;0.5198;0.7482;0.5725;0.1826;0.2033;0.6195
yeast;ESL;2;Fold 5/10;0.4737;0.5367;0.7469;0.2890;0.0661;0.6010
yeast;EPS-DT;256;Fold 0/10;0.5022;0.7217;0.5695;0.1883;0.1612;0.6076
yeast;EPS-DT;256;Fold 1/10;0.5372;0.7832;0.5910;0.1824;0.1860;0.6471
yeast;EPS-DT;256;Fold 2/10;0.4920;0.6924;0.5708;0.1983;0.1570;0.5983
yeast;EPS-DT;256;Fold 3/10;0.4749;0.6910;0.5416;0.2048;0.1653;0.5738
yeast;EPS-DT;256;Fold 4/10;0.5244;0.7421;0.5841;0.1886;0.1942;0.6275
yeast;EPS-DT;256;Fold 5/10;0.5189;0.7679;0.5900;0.1880;0.1736;0.6280
yeast;EPS-DT;256;Fold 6/10;0.5277;0.7584;0.5803;0.1839;0.2190;0.6287
yeast;EPS-DT;256;Fold 7/10;0.4770;0.7064;0.5566;0.2060;0.1577;0.5881
yeast;EPS-DT;256;Fold 8/10;0.5466;0.7503;0.6131;0.1743;0.1950;0.6497
yeast;EPS-DT;256;Fold 9/10;0.5398;0.7407;0.5979;0.1790;0.2282;0.6348
yeast;ESL;2;Fold 6/10;0.4509;0.5382;0.6902;0.3105;0.0785;0.5717
yeast;ESL;256;Fold 0/10;0.3933;0.5544;0.5399;0.2671;0.0579;0.5163
yeast;ESL;256;Fold 1/10;0.4260;0.5933;0.5542;0.2630;0.0826;0.5421
yeast;ESL;256;Fold 2/10;0.4130;0.5123;0.5929;0.2981;0.0950;0.5280
yeast;ESL;256;Fold 3/10;0.4278;0.5645;0.5704;0.2624;0.0868;0.5401
yeast;ESL;256;Fold 4/10;0.4362;0.5439;0.6241;0.2937;0.1116;0.5522
yeast;ESL;256;Fold 5/10;0.4037;0.5682;0.5445;0.2674;0.0620;0.5225
yeast;ESL;256;Fold 6/10;0.4689;0.5802;0.6610;0.2686;0.0950;0.5911
yeast;ESL;256;Fold 7/10;0.4119;0.5114;0.6162;0.2973;0.0705;0.5337
yeast;ESL;256;Fold 8/10;0.3970;0.5131;0.5806;0.3020;0.0954;0.5138
yeast;ESL;256;Fold 9/10;0.4365;0.5397;0.6368;0.2860;0.0830;0.5577
yeast;ESL;2;Fold 7/10;0.4392;0.5288;0.7139;0.2967;0.0498;0.5740
yeast;ESL-DT;256;Fold 0/10;0.4077;0.5689;0.5570;0.2591;0.0620;0.5317
yeast;ESL-DT;256;Fold 1/10;0.4280;0.5970;0.5563;0.2606;0.0826;0.5444
yeast;ESL-DT;256;Fold 2/10;0.3916;0.5509;0.5442;0.2769;0.0702;0.5183
yeast;ESL-DT;256;Fold 3/10;0.4287;0.5641;0.5731;0.2627;0.0909;0.5406
yeast;ESL-DT;256;Fold 4/10;0.4137;0.5182;0.6139;0.3155;0.0950;0.5312
yeast;ESL-DT;256;Fold 5/10;0.4056;0.5730;0.5488;0.2653;0.0661;0.5255
yeast;ESL-DT;256;Fold 6/10;0.4357;0.5364;0.6428;0.3034;0.0950;0.5574
yeast;ESL-DT;256;Fold 7/10;0.3929;0.4877;0.6002;0.3156;0.0581;0.5131
yeast;ESL-DT;256;Fold 8/10;0.4292;0.6277;0.5641;0.2404;0.0539;0.5524
yeast;ESL-DT;256;Fold 9/10;0.4090;0.5087;0.6158;0.3165;0.0830;0.5293
yeast;ESL;2;Fold 8/10;0.4114;0.4894;0.6607;0.3251;0.0871;0.5356
yeast;ESL;2;Fold 9/10;0.4639;0.5309;0.7353;0.2937;0.0622;0.5930
yeast;ECC;2;Fold 5/10;0.4531;0.5229;0.7127;0.3067;0.0702;0.5769
yeast;ESL-DT;2;Fold 0/10;0.3898;0.4731;0.6029;0.3326;0.1033;0.5037
yeast;ESL-DT;2;Fold 1/10;0.4538;0.5581;0.6366;0.2875;0.0950;0.5703
yeast;ESL-DT;2;Fold 2/10;0.4056;0.4974;0.5991;0.3099;0.0785;0.5195
yeast;ESL-DT;2;Fold 3/10;0.3876;0.5193;0.5254;0.2896;0.0785;0.4922
yeast;ESL-DT;2;Fold 4/10;0.4233;0.5219;0.6214;0.3105;0.1033;0.5402
yeast;ESL-DT;2;Fold 5/10;0.4286;0.5665;0.5716;0.2600;0.0992;0.5420
yeast;ESL-DT;2;Fold 6/10;0.4409;0.5488;0.6255;0.2963;0.0950;0.5546
yeast;ESL-DT;2;Fold 7/10;0.3798;0.5320;0.5435;0.2845;0.0622;0.4975
yeast;ESL-DT;2;Fold 8/10;0.3938;0.4962;0.5903;0.3133;0.0913;0.5136
yeast;ESL-DT;2;Fold 9/10;0.4186;0.5189;0.6034;0.2925;0.0788;0.5351
yeast;ECC;2;Fold 6/10;0.4784;0.5532;0.7425;0.2893;0.0826;0.6048
yeast;ECC;4;Fold 0/10;0.5012;0.6086;0.7000;0.2314;0.1198;0.6211
yeast;ECC;4;Fold 1/10;0.5198;0.6380;0.6936;0.2341;0.1529;0.6403
yeast;ECC;4;Fold 2/10;0.4681;0.5687;0.6363;0.2527;0.1322;0.5766
yeast;ECC;4;Fold 3/10;0.4760;0.5888;0.6415;0.2535;0.1240;0.5838
yeast;ECC;4;Fold 4/10;0.5026;0.6028;0.6859;0.2444;0.1322;0.6165
yeast;ECC;4;Fold 5/10;0.4844;0.5889;0.6594;0.2509;0.1364;0.5968
yeast;ECC;4;Fold 6/10;0.5114;0.6295;0.6812;0.2344;0.1405;0.6227
yeast;ECC;4;Fold 7/10;0.5032;0.6072;0.6997;0.2356;0.1286;0.6187
yeast;ECC;4;Fold 8/10;0.5026;0.6059;0.6880;0.2353;0.1328;0.6195
yeast;ECC;4;Fold 9/10;0.5186;0.6197;0.6722;0.2336;0.1826;0.6210
yeast;ECC;2;Fold 7/10;0.4608;0.5228;0.7633;0.2955;0.0664;0.5910
yeast;ECC-DT;4;Fold 0/10;0.4706;0.6456;0.5951;0.2246;0.1364;0.5831
yeast;ECC-DT;4;Fold 1/10;0.4812;0.6580;0.5820;0.2326;0.1488;0.5936
yeast;ECC-DT;4;Fold 2/10;0.4416;0.5838;0.5529;0.2414;0.1405;0.5425
yeast;ECC-DT;4;Fold 3/10;0.4518;0.6298;0.5549;0.2352;0.1198;0.5575
yeast;ECC-DT;4;Fold 4/10;0.4278;0.6098;0.5217;0.2476;0.1198;0.5344
yeast;ECC-DT;4;Fold 5/10;0.4671;0.6324;0.5795;0.2352;0.1322;0.5735
yeast;ECC-DT;4;Fold 6/10;0.4658;0.6369;0.5691;0.2293;0.1364;0.5692
yeast;ECC-DT;4;Fold 7/10;0.4761;0.6385;0.6008;0.2193;0.1452;0.5859
yeast;ECC-DT;4;Fold 8/10;0.4393;0.6105;0.5535;0.2371;0.1203;0.5487
yeast;ECC-DT;4;Fold 9/10;0.4810;0.6337;0.5855;0.2220;0.1494;0.5844
yeast;ECC;2;Fold 8/10;0.4794;0.5356;0.7453;0.2860;0.0996;0.6010
yeast;EPS;4;Fold 0/10;0.4775;0.5922;0.6477;0.2429;0.1157;0.5913
yeast;EPS;4;Fold 1/10;0.4913;0.6162;0.6433;0.2479;0.1777;0.5975
yeast;EPS;4;Fold 2/10;0.4636;0.5642;0.6362;0.2568;0.1198;0.5729
yeast;EPS;4;Fold 3/10;0.4683;0.5844;0.6335;0.2541;0.1281;0.5776
yeast;EPS;4;Fold 4/10;0.4838;0.5990;0.6425;0.2527;0.1405;0.5961
yeast;EPS;4;Fold 5/10;0.4817;0.5854;0.6533;0.2506;0.1240;0.5944
yeast;EPS;4;Fold 6/10;0.5242;0.6367;0.6732;0.2344;0.2149;0.6246
yeast;EPS;4;Fold 7/10;0.4435;0.5367;0.6116;0.2662;0.1328;0.5479
yeast;EPS;4;Fold 8/10;0.4773;0.5884;0.6475;0.2466;0.1120;0.5925
yeast;EPS;4;Fold 9/10;0.5124;0.6031;0.6881;0.2359;0.1826;0.6175
yeast;ECC;2;Fold 9/10;0.4863;0.5570;0.7174;0.2739;0.1162;0.6025
yeast;EPS-DT;4;Fold 0/10;0.4608;0.5823;0.5905;0.2394;0.1777;0.5551
yeast;EPS-DT;4;Fold 1/10;0.4789;0.6257;0.5968;0.2409;0.1860;0.5785
yeast;EPS-DT;4;Fold 2/10;0.4582;0.5756;0.6046;0.2470;0.1653;0.5619
yeast;EPS-DT;4;Fold 3/10;0.4471;0.5731;0.5730;0.2491;0.1612;0.5444
yeast;EPS-DT;4;Fold 4/10;0.4817;0.6028;0.6075;0.2379;0.2107;0.5790
yeast;EPS-DT;4;Fold 5/10;0.4232;0.5948;0.5192;0.2506;0.1322;0.5254
yeast;EPS-DT;4;Fold 6/10;0.5106;0.6480;0.6253;0.2258;0.2149;0.6072
yeast;EPS-DT;4;Fold 7/10;0.4053;0.5270;0.5285;0.2629;0.1369;0.4987
yeast;EPS-DT;4;Fold 8/10;0.4254;0.5565;0.5472;0.2596;0.1328;0.5221
yeast;EPS-DT;4;Fold 9/10;0.4719;0.5836;0.6270;0.2442;0.1577;0.5764
