basename,method,en_size,ExampleBasedAccuracy,ExampleBasedPrecision,ExampleBasedRecall,HammingLoss,SubsetAccuracy,ExampleBasedFMeasure
'slashdot', 'ECC', 2, 0.41761, 0.44092000000000003, 0.63086, 0.07354000000000001, 0.24614999999999995, 0.4854200000000001
'slashdot', 'ECC', 4, 0.4242, 0.45213000000000003, 0.5967399999999998, 0.06462999999999999, 0.26865, 0.48389999999999994
'slashdot', 'ECC', 8, 0.42982, 0.4579599999999999, 0.58857, 0.06137, 0.28106, 0.48650000000000004
'slashdot', 'ECC', 16, 0.43339, 0.46247999999999995, 0.5803900000000001, 0.05832, 0.28954, 0.48768
'slashdot', 'ECC', 32, 0.43687999999999994, 0.46688, 0.57651, 0.05715, 0.2972, 0.48946000000000006
'slashdot', 'ECC', 64, nan, nan, nan, nan, nan, nan
'slashdot', 'ECC-DT', 2, 0.41673, 0.43957999999999997, 0.64481, 0.07473, 0.22874000000000003, 0.49049
'slashdot', 'ECC-DT', 4, 0.43187, 0.45596999999999993, 0.6404799999999999, 0.07007000000000001, 0.2549, 0.5006700000000001
'slashdot', 'ECC-DT', 8, 0.43677, 0.46184000000000003, 0.63541, 0.06787, 0.26284, 0.50383
'slashdot', 'ECC-DT', 16, 0.4422625, 0.4674625, 0.6373875000000001, 0.06575, 0.27, 0.50835
'slashdot', 'ECC-DT', 32, nan, nan, nan, nan, nan, nan
'slashdot', 'ECC-DT', 64, nan, nan, nan, nan, nan, nan
'slashdot', 'EPS', 2, 0.50679, 0.55012, 0.59206, 0.055689999999999996, 0.3863, 0.5498400000000001
'slashdot', 'EPS', 4, 0.5074099999999999, 0.5536000000000001, 0.5497, 0.050339999999999996, 0.42279, 0.53716
'slashdot', 'EPS', 8, 0.5117700000000001, 0.56016, 0.54183, 0.047060000000000005, 0.4368, 0.53792
'slashdot', 'EPS', 16, 0.51081, 0.55941, 0.53754, 0.04642, 0.43785999999999997, 0.5360400000000001
'slashdot', 'EPS', 32, 0.50925, 0.5578099999999999, 0.5341899999999999, 0.04595, 0.43811999999999995, 0.53377
'slashdot', 'EPS', 64, 0.5083888888888889, 0.5560666666666667, 0.5323222222222223, 0.04591111111111111, 0.43873333333333336, 0.5323555555555556
'slashdot', 'EPS-DT', 2, 0.28675, 0.30754000000000004, 0.5544399999999999, 0.09517, 0.053149999999999996, 0.37824
'slashdot', 'EPS-DT', 4, 0.34059999999999996, 0.36649999999999994, 0.55223, 0.08116999999999999, 0.13329, 0.41803999999999997
'slashdot', 'EPS-DT', 8, 0.32045999999999997, 0.34435, 0.5564899999999999, 0.08263000000000001, 0.08596999999999999, 0.40674
'slashdot', 'EPS-DT', 16, 0.37031000000000003, 0.40086000000000005, 0.5438299999999999, 0.07289000000000001, 0.18966000000000002, 0.43714
'slashdot', 'EPS-DT', 32, nan, nan, nan, nan, nan, nan
'slashdot', 'EPS-DT', 64, nan, nan, nan, nan, nan, nan
