mediamill
ESL;16;Fold 5/10
#
# There is insufficient memory for the Java Runtime Environment to continue.
# Native memory allocation (mmap) failed to map 116916224 bytes for committing reserved memory.
# An error report file with more information is saved as:
# /home/vrocha/MLDTPaper2017/resultsDT/hs_err_pid213908.log
